EESchema Schematic File Version 4
LIBS:power
LIBS:device
LIBS:transistors
LIBS:conn
LIBS:linear
LIBS:regul
LIBS:74xx
LIBS:cmos4000
LIBS:adc-dac
LIBS:memory
LIBS:xilinx
LIBS:microcontrollers
LIBS:dsp
LIBS:microchip
LIBS:analog_switches
LIBS:motorola
LIBS:texas
LIBS:intel
LIBS:audio
LIBS:interface
LIBS:digital-audio
LIBS:philips
LIBS:display
LIBS:cypress
LIBS:siliconi
LIBS:opto
LIBS:atmel
LIBS:contrib
LIBS:valves
LIBS:stm32
LIBS:MCU-cache
EELAYER 26 0
EELAYER END
$Descr A3 16535 11693
encoding utf-8
Sheet 1 1
Title "Curve Tracer / Processor Board"
Date ""
Rev "0001"
Comp ""
Comment1 ""
Comment2 ""
Comment3 ""
Comment4 ""
$EndDescr
$Comp
L MCU_ST_STM32F4:STM32F407VGTx U1
U 1 1 5B958F16
P 5675 3800
F 0 "U1" H 5050 1125 50  0000 C CNN
F 1 "STM32F407VGTx" H 6275 1125 50  0000 C CNN
F 2 "Package_QFP:LQFP-100_14x14mm_P0.5mm" H 4975 1200 50  0001 R CNN
F 3 "http://www.st.com/st-web-ui/static/active/en/resource/technical/document/datasheet/DM00037051.pdf" H 5675 3800 50  0001 C CNN
	1    5675 3800
	1    0    0    -1  
$EndComp
$Comp
L power:+3.3V #PWR0101
U 1 1 5B958F67
P 1325 10050
F 0 "#PWR0101" H 1325 9900 50  0001 C CNN
F 1 "+3.3V" H 1340 10223 50  0000 C CNN
F 2 "" H 1325 10050 50  0001 C CNN
F 3 "" H 1325 10050 50  0001 C CNN
	1    1325 10050
	1    0    0    -1  
$EndComp
$Comp
L power:+3.3VA #PWR0102
U 1 1 5B958F92
P 925 10050
F 0 "#PWR0102" H 925 9900 50  0001 C CNN
F 1 "+3.3VA" H 940 10223 50  0000 C CNN
F 2 "" H 925 10050 50  0001 C CNN
F 3 "" H 925 10050 50  0001 C CNN
	1    925  10050
	1    0    0    -1  
$EndComp
$Comp
L power:GND #PWR0103
U 1 1 5B958FD2
P 1325 10550
F 0 "#PWR0103" H 1325 10300 50  0001 C CNN
F 1 "GND" H 1330 10377 50  0000 C CNN
F 2 "" H 1325 10550 50  0001 C CNN
F 3 "" H 1325 10550 50  0001 C CNN
	1    1325 10550
	1    0    0    -1  
$EndComp
$Comp
L power:GNDA #PWR0104
U 1 1 5B959019
P 925 10550
F 0 "#PWR0104" H 925 10300 50  0001 C CNN
F 1 "GNDA" H 930 10377 50  0000 C CNN
F 2 "" H 925 10550 50  0001 C CNN
F 3 "" H 925 10550 50  0001 C CNN
	1    925  10550
	1    0    0    -1  
$EndComp
$Comp
L Device:L L1
U 1 1 5B959044
P 1125 10100
F 0 "L1" V 1315 10100 50  0000 C CNN
F 1 "L" V 1224 10100 50  0000 C CNN
F 2 "" H 1125 10100 50  0001 C CNN
F 3 "~" H 1125 10100 50  0001 C CNN
	1    1125 10100
	0    -1   -1   0   
$EndComp
$Comp
L Device:L L2
U 1 1 5B959157
P 1125 10500
F 0 "L2" V 1315 10500 50  0000 C CNN
F 1 "L" V 1224 10500 50  0000 C CNN
F 2 "" H 1125 10500 50  0001 C CNN
F 3 "~" H 1125 10500 50  0001 C CNN
	1    1125 10500
	0    -1   -1   0   
$EndComp
$Comp
L Device:C C2
U 1 1 5B959208
P 1325 10300
F 0 "C2" H 1440 10346 50  0000 L CNN
F 1 "C" H 1440 10255 50  0000 L CNN
F 2 "" H 1363 10150 50  0001 C CNN
F 3 "~" H 1325 10300 50  0001 C CNN
	1    1325 10300
	1    0    0    -1  
$EndComp
$Comp
L Device:C C1
U 1 1 5B959274
P 925 10300
F 0 "C1" H 1040 10346 50  0000 L CNN
F 1 "C" H 1040 10255 50  0000 L CNN
F 2 "" H 963 10150 50  0001 C CNN
F 3 "~" H 925 10300 50  0001 C CNN
	1    925  10300
	1    0    0    -1  
$EndComp
Wire Wire Line
	925  10050 925  10100
Wire Wire Line
	975  10100 925  10100
Connection ~ 925  10100
Wire Wire Line
	925  10100 925  10150
Wire Wire Line
	1325 10050 1325 10100
Wire Wire Line
	1275 10100 1325 10100
Connection ~ 1325 10100
Wire Wire Line
	1325 10100 1325 10150
Wire Wire Line
	1325 10450 1325 10500
Wire Wire Line
	1275 10500 1325 10500
Connection ~ 1325 10500
Wire Wire Line
	1325 10500 1325 10550
Wire Wire Line
	925  10450 925  10500
Wire Wire Line
	925  10500 975  10500
Connection ~ 925  10500
Wire Wire Line
	925  10500 925  10550
Text GLabel 6700 1800 2    50   Input ~ 0
DAC_OUT
Wire Wire Line
	6575 1800 6700 1800
Text GLabel 6725 3700 2    50   Input ~ 0
SCL_33
Text GLabel 6725 3800 2    50   Input ~ 0
SDA_33
Wire Wire Line
	6725 3700 6575 3700
Wire Wire Line
	6575 3800 6725 3800
Text GLabel 6700 2400 2    50   Input ~ 0
SYNC_OUT
Wire Wire Line
	6575 2400 6700 2400
$Comp
L texas:PCA9306 U2
U 1 1 5B95A266
P 8725 1875
F 0 "U2" H 8450 2350 50  0000 C CNN
F 1 "PCA9306" H 8950 1400 50  0000 C CNN
F 2 "Housings_SSOP:SSOP-8_2.95x2.8mm_Pitch0.65mm" H 8325 2225 50  0001 C CNN
F 3 "http://www.ti.com/lit/ds/symlink/pca9306.pdf" H 8425 2325 50  0001 C CNN
	1    8725 1875
	1    0    0    -1  
$EndComp
$Comp
L power:GND #PWR0105
U 1 1 5B95A2C4
P 8725 2475
F 0 "#PWR0105" H 8725 2225 50  0001 C CNN
F 1 "GND" H 8730 2302 50  0000 C CNN
F 2 "" H 8725 2475 50  0001 C CNN
F 3 "" H 8725 2475 50  0001 C CNN
	1    8725 2475
	1    0    0    -1  
$EndComp
Wire Wire Line
	8725 2375 8725 2475
Text GLabel 8225 1875 0    50   Input ~ 0
SCL_33
Text GLabel 8225 1975 0    50   Input ~ 0
SDA_33
Wire Wire Line
	8225 1875 8325 1875
Wire Wire Line
	8225 1975 8325 1975
Wire Wire Line
	8825 1375 8825 1325
Wire Wire Line
	8825 1325 9175 1325
Wire Wire Line
	9175 1325 9175 1775
Wire Wire Line
	9175 1775 9125 1775
$Comp
L Device:R R1
U 1 1 5B95ABB2
P 8825 1100
F 0 "R1" H 8895 1146 50  0000 L CNN
F 1 "220K" H 8895 1055 50  0000 L CNN
F 2 "Resistors_SMD:R_0603_HandSoldering" V 8755 1100 50  0001 C CNN
F 3 "~" H 8825 1100 50  0001 C CNN
	1    8825 1100
	1    0    0    -1  
$EndComp
$Comp
L power:+5V #PWR0106
U 1 1 5B95AC46
P 8825 875
F 0 "#PWR0106" H 8825 725 50  0001 C CNN
F 1 "+5V" H 8840 1048 50  0000 C CNN
F 2 "" H 8825 875 50  0001 C CNN
F 3 "" H 8825 875 50  0001 C CNN
	1    8825 875 
	1    0    0    -1  
$EndComp
Wire Wire Line
	8825 1250 8825 1325
Connection ~ 8825 1325
Wire Wire Line
	8825 875  8825 925 
$Comp
L power:+3.3V #PWR0107
U 1 1 5B95B1A4
P 8625 1300
F 0 "#PWR0107" H 8625 1150 50  0001 C CNN
F 1 "+3.3V" H 8640 1473 50  0000 C CNN
F 2 "" H 8625 1300 50  0001 C CNN
F 3 "" H 8625 1300 50  0001 C CNN
	1    8625 1300
	1    0    0    -1  
$EndComp
Wire Wire Line
	8625 1300 8625 1375
$Comp
L Device:R R2
U 1 1 5B95B4D4
P 9275 1625
F 0 "R2" H 9345 1671 50  0000 L CNN
F 1 "10K" H 9345 1580 50  0000 L CNN
F 2 "Resistors_SMD:R_0603_HandSoldering" V 9205 1625 50  0001 C CNN
F 3 "~" H 9275 1625 50  0001 C CNN
	1    9275 1625
	1    0    0    -1  
$EndComp
$Comp
L Device:R R3
U 1 1 5B95B568
P 9475 1625
F 0 "R3" H 9545 1671 50  0000 L CNN
F 1 "10K" H 9545 1580 50  0000 L CNN
F 2 "Resistors_SMD:R_0603_HandSoldering" V 9405 1625 50  0001 C CNN
F 3 "~" H 9475 1625 50  0001 C CNN
	1    9475 1625
	1    0    0    -1  
$EndComp
Wire Wire Line
	8825 925  9275 925 
Wire Wire Line
	9475 925  9475 1475
Connection ~ 8825 925 
Wire Wire Line
	8825 925  8825 950 
Wire Wire Line
	9275 1475 9275 925 
Connection ~ 9275 925 
Wire Wire Line
	9275 925  9475 925 
Text GLabel 9550 1975 2    50   Input ~ 0
SDA_50
Text GLabel 9550 1875 2    50   Input ~ 0
SCL_50
Wire Wire Line
	9125 1875 9275 1875
Wire Wire Line
	9125 1975 9475 1975
Wire Wire Line
	9275 1775 9275 1875
Connection ~ 9275 1875
Wire Wire Line
	9275 1875 9550 1875
Wire Wire Line
	9475 1775 9475 1975
Connection ~ 9475 1975
Wire Wire Line
	9475 1975 9550 1975
$Comp
L power:+3.3VA #PWR0108
U 1 1 5BBB47F9
P 6075 975
F 0 "#PWR0108" H 6075 825 50  0001 C CNN
F 1 "+3.3VA" H 6090 1148 50  0000 C CNN
F 2 "" H 6075 975 50  0001 C CNN
F 3 "" H 6075 975 50  0001 C CNN
	1    6075 975 
	1    0    0    -1  
$EndComp
Wire Wire Line
	6075 975  6075 1100
$Comp
L power:+3.3V #PWR0109
U 1 1 5BBB4E5D
P 5725 975
F 0 "#PWR0109" H 5725 825 50  0001 C CNN
F 1 "+3.3V" H 5740 1148 50  0000 C CNN
F 2 "" H 5725 975 50  0001 C CNN
F 3 "" H 5725 975 50  0001 C CNN
	1    5725 975 
	1    0    0    -1  
$EndComp
Wire Wire Line
	5475 1100 5475 1025
Wire Wire Line
	5475 1025 5575 1025
Wire Wire Line
	5975 1025 5975 1100
Wire Wire Line
	5725 975  5725 1025
Connection ~ 5725 1025
Wire Wire Line
	5725 1025 5775 1025
Wire Wire Line
	5575 1100 5575 1025
Connection ~ 5575 1025
Wire Wire Line
	5575 1025 5675 1025
Wire Wire Line
	5675 1025 5675 1100
Connection ~ 5675 1025
Wire Wire Line
	5675 1025 5725 1025
Wire Wire Line
	5775 1100 5775 1025
Connection ~ 5775 1025
Wire Wire Line
	5775 1025 5875 1025
Wire Wire Line
	5875 1100 5875 1025
Connection ~ 5875 1025
Wire Wire Line
	5875 1025 5975 1025
$Comp
L power:GNDA #PWR0110
U 1 1 5BBB9642
P 5875 6725
F 0 "#PWR0110" H 5875 6475 50  0001 C CNN
F 1 "GNDA" H 5880 6552 50  0000 C CNN
F 2 "" H 5875 6725 50  0001 C CNN
F 3 "" H 5875 6725 50  0001 C CNN
	1    5875 6725
	1    0    0    -1  
$EndComp
$Comp
L power:GND #PWR0111
U 1 1 5BBB9F0E
P 5625 6725
F 0 "#PWR0111" H 5625 6475 50  0001 C CNN
F 1 "GND" H 5630 6552 50  0000 C CNN
F 2 "" H 5625 6725 50  0001 C CNN
F 3 "" H 5625 6725 50  0001 C CNN
	1    5625 6725
	1    0    0    -1  
$EndComp
Wire Wire Line
	5475 6600 5475 6650
Wire Wire Line
	5775 6650 5775 6600
Wire Wire Line
	5575 6600 5575 6650
Wire Wire Line
	5475 6650 5575 6650
Connection ~ 5575 6650
Wire Wire Line
	5575 6650 5625 6650
Wire Wire Line
	5675 6600 5675 6650
Connection ~ 5675 6650
Wire Wire Line
	5675 6650 5775 6650
Wire Wire Line
	5625 6725 5625 6650
Connection ~ 5625 6650
Wire Wire Line
	5625 6650 5675 6650
Wire Wire Line
	5875 6600 5875 6725
$Comp
L conn:USB_B J5
U 1 1 5BBBF9E6
P 2650 1600
F 0 "J5" H 2705 2067 50  0000 C CNN
F 1 "USB_B" H 2705 1976 50  0000 C CNN
F 2 "" H 2800 1550 50  0001 C CNN
F 3 "" H 2800 1550 50  0001 C CNN
	1    2650 1600
	1    0    0    -1  
$EndComp
$Comp
L power:GND #PWR0112
U 1 1 5BBBFA5A
P 2600 2125
F 0 "#PWR0112" H 2600 1875 50  0001 C CNN
F 1 "GND" H 2605 1952 50  0000 C CNN
F 2 "" H 2600 2125 50  0001 C CNN
F 3 "" H 2600 2125 50  0001 C CNN
	1    2600 2125
	1    0    0    -1  
$EndComp
Wire Wire Line
	2550 2000 2550 2050
Wire Wire Line
	2550 2050 2600 2050
Wire Wire Line
	2650 2050 2650 2000
Wire Wire Line
	2600 2125 2600 2050
Connection ~ 2600 2050
Wire Wire Line
	2600 2050 2650 2050
Text GLabel 3100 1600 2    50   Input ~ 0
USB_FS_D+
Text GLabel 3100 1700 2    50   Input ~ 0
USB_FS_D-
Text GLabel 6700 2600 2    50   Input ~ 0
USB_FS_D+
Text GLabel 6700 2500 2    50   Input ~ 0
USB_FS_D-
Wire Wire Line
	6700 2500 6575 2500
Wire Wire Line
	6700 2600 6575 2600
Text GLabel 6700 1400 2    50   Input ~ 0
IN_A_I_S
Text GLabel 6700 1700 2    50   Input ~ 0
IN_A_V_S
Wire Wire Line
	6700 1400 6575 1400
Wire Wire Line
	6700 1700 6575 1700
$Comp
L conn:Conn_01x06 J1
U 1 1 5BBC9F0D
P 1100 1575
F 0 "J1" H 1020 1992 50  0000 C CNN
F 1 "PowerAmp" H 1020 1901 50  0000 C CNN
F 2 "" H 1100 1575 50  0001 C CNN
F 3 "~" H 1100 1575 50  0001 C CNN
	1    1100 1575
	-1   0    0    -1  
$EndComp
$Comp
L power:GND #PWR0113
U 1 1 5BBC9FD0
P 1375 1975
F 0 "#PWR0113" H 1375 1725 50  0001 C CNN
F 1 "GND" H 1380 1802 50  0000 C CNN
F 2 "" H 1375 1975 50  0001 C CNN
F 3 "" H 1375 1975 50  0001 C CNN
	1    1375 1975
	1    0    0    -1  
$EndComp
Wire Wire Line
	1300 1875 1375 1875
Wire Wire Line
	1375 1875 1375 1975
$Comp
L power:GNDA #PWR0114
U 1 1 5BBCB90A
P 1625 1975
F 0 "#PWR0114" H 1625 1725 50  0001 C CNN
F 1 "GNDA" H 1630 1802 50  0000 C CNN
F 2 "" H 1625 1975 50  0001 C CNN
F 3 "" H 1625 1975 50  0001 C CNN
	1    1625 1975
	1    0    0    -1  
$EndComp
Wire Wire Line
	1300 1775 1625 1775
Wire Wire Line
	1625 1775 1625 1975
Text GLabel 1400 1675 2    50   Input ~ 0
DAC_OUT
Text GLabel 1400 1575 2    50   Input ~ 0
SCL_50
Text GLabel 1400 1475 2    50   Input ~ 0
SDA_50
Text GLabel 1400 1375 2    50   Input ~ 0
PA_ENABLE
Wire Wire Line
	1300 1375 1400 1375
Wire Wire Line
	1300 1475 1400 1475
Wire Wire Line
	1300 1575 1400 1575
Wire Wire Line
	1300 1675 1400 1675
$Comp
L conn:Conn_01x03 J2
U 1 1 5BBDA54A
P 1100 2675
F 0 "J2" H 1020 2992 50  0000 C CNN
F 1 "Attenuator" H 1020 2901 50  0000 C CNN
F 2 "" H 1100 2675 50  0001 C CNN
F 3 "~" H 1100 2675 50  0001 C CNN
	1    1100 2675
	-1   0    0    -1  
$EndComp
Text GLabel 1425 2675 2    50   Input ~ 0
SCL_50
Text GLabel 1425 2575 2    50   Input ~ 0
SDA_50
$Comp
L power:GND #PWR0115
U 1 1 5BBDC365
P 1425 2875
F 0 "#PWR0115" H 1425 2625 50  0001 C CNN
F 1 "GND" H 1430 2702 50  0000 C CNN
F 2 "" H 1425 2875 50  0001 C CNN
F 3 "" H 1425 2875 50  0001 C CNN
	1    1425 2875
	1    0    0    -1  
$EndComp
Wire Wire Line
	1300 2575 1425 2575
Wire Wire Line
	1300 2675 1425 2675
Wire Wire Line
	1300 2775 1425 2775
Wire Wire Line
	1425 2775 1425 2875
$Comp
L conn:Conn_01x06 J3
U 1 1 5BBE230B
P 1100 3575
F 0 "J3" H 1020 3992 50  0000 C CNN
F 1 "MeasureAmp" H 1020 3901 50  0000 C CNN
F 2 "" H 1100 3575 50  0001 C CNN
F 3 "~" H 1100 3575 50  0001 C CNN
	1    1100 3575
	-1   0    0    -1  
$EndComp
$Comp
L power:GND #PWR0116
U 1 1 5BBE2311
P 1375 3975
F 0 "#PWR0116" H 1375 3725 50  0001 C CNN
F 1 "GND" H 1380 3802 50  0000 C CNN
F 2 "" H 1375 3975 50  0001 C CNN
F 3 "" H 1375 3975 50  0001 C CNN
	1    1375 3975
	1    0    0    -1  
$EndComp
Wire Wire Line
	1300 3875 1375 3875
Wire Wire Line
	1375 3875 1375 3975
$Comp
L power:GNDA #PWR0117
U 1 1 5BBE2319
P 1925 3775
F 0 "#PWR0117" H 1925 3525 50  0001 C CNN
F 1 "GNDA" H 1930 3602 50  0000 C CNN
F 2 "" H 1925 3775 50  0001 C CNN
F 3 "" H 1925 3775 50  0001 C CNN
	1    1925 3775
	1    0    0    -1  
$EndComp
Wire Wire Line
	1925 3575 1925 3775
Text GLabel 1400 3775 2    50   Input ~ 0
SCL_50
Text GLabel 1400 3675 2    50   Input ~ 0
SDA_50
Text GLabel 1400 3375 2    50   Input ~ 0
IN_A_I
Wire Wire Line
	1300 3375 1400 3375
Wire Wire Line
	1300 3475 1400 3475
Wire Wire Line
	1300 3675 1400 3675
Text GLabel 1400 3475 2    50   Input ~ 0
IN_A_V
Wire Wire Line
	1300 3575 1925 3575
Wire Wire Line
	1400 3775 1300 3775
$Comp
L conn:Conn_02x20_Odd_Even J4
U 1 1 5BBF48CA
P 1375 5725
F 0 "J4" H 1425 6842 50  0000 C CNN
F 1 "Display" H 1425 6751 50  0000 C CNN
F 2 "" H 1375 5725 50  0001 C CNN
F 3 "~" H 1375 5725 50  0001 C CNN
	1    1375 5725
	1    0    0    -1  
$EndComp
Text GLabel 1775 4825 2    50   Input ~ 0
DA0
Text GLabel 1775 4925 2    50   Input ~ 0
DA1
Text GLabel 1775 5025 2    50   Input ~ 0
DA2
Text GLabel 1775 5125 2    50   Input ~ 0
DA3
Text GLabel 1775 5225 2    50   Input ~ 0
DA4
Text GLabel 1775 5425 2    50   Input ~ 0
DA6
Text GLabel 1775 5525 2    50   Input ~ 0
DA7
Text GLabel 1075 5425 0    50   Input ~ 0
DA8
Text GLabel 1075 5525 0    50   Input ~ 0
DA9
Text GLabel 1075 5725 0    50   Input ~ 0
DA11
Text GLabel 1075 5825 0    50   Input ~ 0
DA12
Text GLabel 1075 5925 0    50   Input ~ 0
DA13
Text GLabel 1075 6025 0    50   Input ~ 0
DA14
Text GLabel 1075 6125 0    50   Input ~ 0
DA15
$Comp
L power:GND #PWR0118
U 1 1 5BBF53A5
P 800 4850
F 0 "#PWR0118" H 800 4600 50  0001 C CNN
F 1 "GND" H 805 4677 50  0000 C CNN
F 2 "" H 800 4850 50  0001 C CNN
F 3 "" H 800 4850 50  0001 C CNN
	1    800  4850
	1    0    0    -1  
$EndComp
$Comp
L power:+3.3V #PWR0119
U 1 1 5BBF5E29
P 1000 4775
F 0 "#PWR0119" H 1000 4625 50  0001 C CNN
F 1 "+3.3V" H 1015 4948 50  0000 C CNN
F 2 "" H 1000 4775 50  0001 C CNN
F 3 "" H 1000 4775 50  0001 C CNN
	1    1000 4775
	1    0    0    -1  
$EndComp
Wire Wire Line
	1175 4825 800  4825
Wire Wire Line
	800  4825 800  4850
Wire Wire Line
	1000 4775 1000 4925
Wire Wire Line
	1000 4925 1175 4925
Text GLabel 1050 5125 0    50   Input ~ 0
LCD_RS
Text GLabel 1050 5225 0    50   Input ~ 0
LCD_WR
Text GLabel 1050 5325 0    50   Input ~ 0
LCD_RD
Text GLabel 1075 6225 0    50   Input ~ 0
LCD_CS
Text GLabel 1075 6325 0    50   Input ~ 0
FLASH_CS
Text GLabel 1075 6425 0    50   Input ~ 0
LCD_RST
Text GLabel 1075 6625 0    50   Input ~ 0
LED_A
Text GLabel 1075 5625 0    50   Input ~ 0
DA10
$Comp
L power:+5V #PWR0120
U 1 1 5BC043C3
P 550 6475
F 0 "#PWR0120" H 550 6325 50  0001 C CNN
F 1 "+5V" H 565 6648 50  0000 C CNN
F 2 "" H 550 6475 50  0001 C CNN
F 3 "" H 550 6475 50  0001 C CNN
	1    550  6475
	1    0    0    -1  
$EndComp
Wire Wire Line
	1175 6525 550  6525
Wire Wire Line
	550  6525 550  6475
Wire Wire Line
	1050 5125 1175 5125
Wire Wire Line
	1050 5225 1175 5225
Wire Wire Line
	1050 5325 1175 5325
Wire Wire Line
	1075 5425 1175 5425
Wire Wire Line
	1075 5525 1175 5525
Wire Wire Line
	1075 5625 1175 5625
Wire Wire Line
	1075 5725 1175 5725
Wire Wire Line
	1075 5825 1175 5825
Wire Wire Line
	1075 5925 1175 5925
Wire Wire Line
	1075 6025 1175 6025
Wire Wire Line
	1075 6125 1175 6125
Wire Wire Line
	1075 6225 1175 6225
Wire Wire Line
	1075 6325 1175 6325
Wire Wire Line
	1075 6425 1175 6425
Wire Wire Line
	1075 6625 1175 6625
Wire Wire Line
	1675 4825 1775 4825
Wire Wire Line
	1675 4925 1775 4925
Wire Wire Line
	1675 5025 1775 5025
Wire Wire Line
	1675 5125 1775 5125
Wire Wire Line
	1675 5225 1775 5225
Wire Wire Line
	1675 5425 1775 5425
Wire Wire Line
	1675 5525 1775 5525
Text GLabel 1775 5625 2    50   Input ~ 0
TP_CLK
Text GLabel 1775 5725 2    50   Input ~ 0
TP_CS
Text GLabel 1775 5825 2    50   Input ~ 0
TP_DIN
Text GLabel 1775 5925 2    50   Input ~ 0
TP_BUSY
Text GLabel 1775 6025 2    50   Input ~ 0
TP_DOUT
Text GLabel 1775 6125 2    50   Input ~ 0
TP_IRQ
Text GLabel 1775 6225 2    50   Input ~ 0
MISO
Text GLabel 1775 6325 2    50   Input ~ 0
SCLK
Text GLabel 1775 6425 2    50   Input ~ 0
MOSI
Text GLabel 1775 6525 2    50   Input ~ 0
SD_CS
Text GLabel 2175 6625 2    50   Input ~ 0
FCS
$Comp
L Device:R JP1
U 1 1 5BC5BE76
P 1925 6625
F 0 "JP1" V 1920 6625 50  0000 C CNN
F 1 "0R" V 1750 6750 50  0001 C CNN
F 2 "Resistors_SMD:R_0805_HandSoldering" V 1855 6625 50  0001 C CNN
F 3 "~" H 1925 6625 50  0001 C CNN
	1    1925 6625
	0    -1   -1   0   
$EndComp
Wire Wire Line
	1675 5625 1775 5625
Wire Wire Line
	1675 5725 1775 5725
Wire Wire Line
	1775 5825 1675 5825
Wire Wire Line
	1675 5925 1775 5925
Wire Wire Line
	1675 6025 1775 6025
Wire Wire Line
	1675 6125 1775 6125
Wire Wire Line
	1675 6225 1775 6225
Wire Wire Line
	1675 6325 1775 6325
Wire Wire Line
	1675 6425 1775 6425
Wire Wire Line
	1675 6525 1775 6525
Wire Wire Line
	1675 6625 1775 6625
Wire Wire Line
	2075 6625 2175 6625
Text GLabel 1775 5325 2    50   Input ~ 0
DA5
Wire Wire Line
	1675 5325 1775 5325
Text GLabel 4650 6200 0    50   Input ~ 0
DA0
Text GLabel 4650 6300 0    50   Input ~ 0
DA1
Text GLabel 4625 4800 0    50   Input ~ 0
DA2
Text GLabel 4625 4900 0    50   Input ~ 0
DA3
Text GLabel 4675 3800 0    50   Input ~ 0
DA4
Text GLabel 4675 4000 0    50   Input ~ 0
DA6
Text GLabel 4675 4100 0    50   Input ~ 0
DA7
Wire Wire Line
	4775 3300 4675 3300
Wire Wire Line
	4775 3400 4675 3400
Wire Wire Line
	4775 3500 4675 3500
Wire Wire Line
	4775 3700 4675 3700
Wire Wire Line
	4775 3800 4675 3800
Text GLabel 4675 3900 0    50   Input ~ 0
DA5
Wire Wire Line
	4775 3600 4675 3600
Text GLabel 4675 4200 0    50   Input ~ 0
DA8
Text GLabel 4675 4300 0    50   Input ~ 0
DA9
Text GLabel 4675 4500 0    50   Input ~ 0
DA11
Text GLabel 4675 4600 0    50   Input ~ 0
DA12
Text GLabel 4625 5600 0    50   Input ~ 0
DA13
Text GLabel 4625 5700 0    50   Input ~ 0
DA14
Text GLabel 4625 5800 0    50   Input ~ 0
DA15
Text GLabel 4675 4400 0    50   Input ~ 0
DA10
Wire Wire Line
	4675 3900 4775 3900
Wire Wire Line
	4675 4000 4775 4000
Wire Wire Line
	4675 4100 4775 4100
Wire Wire Line
	4675 4200 4775 4200
Wire Wire Line
	4675 4300 4775 4300
Wire Wire Line
	4675 4400 4775 4400
Wire Wire Line
	4675 4500 4775 4500
Wire Wire Line
	4675 4600 4775 4600
Text GLabel 6725 4900 2    50   Input ~ 0
ETH_MDC
Text GLabel 6700 1500 2    50   Input ~ 0
ETH_REF_CLK
Text GLabel 6700 1600 2    50   Input ~ 0
ETH_MDIO
Text GLabel 6700 2100 2    50   Input ~ 0
ETH_CRS_DV
Text GLabel 6725 5200 2    50   Input ~ 0
ETH_RXD0
Text GLabel 6725 5300 2    50   Input ~ 0
ETH_RXD1
Text GLabel 6725 4200 2    50   Input ~ 0
ETH_TX_EN
Text GLabel 6725 4300 2    50   Input ~ 0
ETH_TXD0
Text GLabel 6725 4400 2    50   Input ~ 0
ETH_TXD1
Wire Wire Line
	6575 4200 6725 4200
Wire Wire Line
	6575 4300 6725 4300
Wire Wire Line
	6575 4400 6725 4400
Wire Wire Line
	6575 4900 6725 4900
Wire Wire Line
	6575 5200 6725 5200
Wire Wire Line
	6575 5300 6725 5300
Wire Wire Line
	6700 1500 6575 1500
Wire Wire Line
	6700 1600 6575 1600
Wire Wire Line
	6700 2100 6575 2100
$Comp
L power:+3.3VA #PWR0121
U 1 1 5BD19785
P 4250 1925
F 0 "#PWR0121" H 4250 1775 50  0001 C CNN
F 1 "+3.3VA" H 4265 2098 50  0000 C CNN
F 2 "" H 4250 1925 50  0001 C CNN
F 3 "" H 4250 1925 50  0001 C CNN
	1    4250 1925
	1    0    0    -1  
$EndComp
Wire Wire Line
	4775 2000 4250 2000
Wire Wire Line
	4250 2000 4250 1925
Wire Wire Line
	2950 1600 3100 1600
Wire Wire Line
	2950 1700 3100 1700
$Comp
L linear:TL072 U3
U 1 1 5BDA5667
P 13425 1675
F 0 "U3" H 13400 1850 50  0000 L CNN
F 1 "OPA2197" H 13425 1525 50  0000 L CNN
F 2 "Housings_SOIC:SOIC-8_3.9x4.9mm_Pitch1.27mm" H 13425 1675 50  0001 C CNN
F 3 "http://www.ti.com/lit/ds/symlink/tl071.pdf" H 13425 1675 50  0001 C CNN
	1    13425 1675
	1    0    0    -1  
$EndComp
$Comp
L power:+15V #PWR0122
U 1 1 5BDA566D
P 13325 1300
F 0 "#PWR0122" H 13325 1150 50  0001 C CNN
F 1 "+15V" H 13340 1473 50  0000 C CNN
F 2 "" H 13325 1300 50  0001 C CNN
F 3 "" H 13325 1300 50  0001 C CNN
	1    13325 1300
	1    0    0    -1  
$EndComp
$Comp
L power:-15V #PWR0123
U 1 1 5BDA5673
P 13325 2050
F 0 "#PWR0123" H 13325 2150 50  0001 C CNN
F 1 "-15V" H 13340 2223 50  0000 C CNN
F 2 "" H 13325 2050 50  0001 C CNN
F 3 "" H 13325 2050 50  0001 C CNN
	1    13325 2050
	-1   0    0    1   
$EndComp
$Comp
L power:GNDREF #PWR0124
U 1 1 5BDA5679
P 11825 1950
F 0 "#PWR0124" H 11825 1700 50  0001 C CNN
F 1 "GNDREF" H 11830 1777 50  0000 C CNN
F 2 "1,65V" H 11950 1975 50  0000 C CNN
F 3 "" H 11825 1950 50  0001 C CNN
	1    11825 1950
	1    0    0    -1  
$EndComp
Wire Wire Line
	13325 1975 13325 2050
Wire Wire Line
	13325 1300 13325 1375
$Comp
L Device:R R4
U 1 1 5BDA5683
P 12500 1775
F 0 "R4" V 12600 1775 50  0000 C CNN
F 1 "10K" V 12384 1775 50  0000 C CNN
F 2 "Resistors_SMD:R_0603_HandSoldering" V 12430 1775 50  0001 C CNN
F 3 "~" H 12500 1775 50  0001 C CNN
	1    12500 1775
	0    1    1    0   
$EndComp
$Comp
L Device:R R6
U 1 1 5BDA5695
P 12950 1350
F 0 "R6" V 12743 1350 50  0000 C CNN
F 1 "10K" V 12834 1350 50  0000 C CNN
F 2 "Resistors_SMD:R_0603_HandSoldering" V 12880 1350 50  0001 C CNN
F 3 "~" H 12950 1350 50  0001 C CNN
	1    12950 1350
	0    1    1    0   
$EndComp
Wire Wire Line
	13125 1775 12725 1775
Connection ~ 12725 1775
Wire Wire Line
	12725 1775 12650 1775
Wire Wire Line
	12725 1775 12725 1350
Wire Wire Line
	12725 1350 12800 1350
Wire Wire Line
	13100 1350 13725 1350
Wire Wire Line
	13725 1350 13725 1675
Text GLabel 15350 1775 2    50   Input ~ 0
IN_A_I_S
Text GLabel 12250 1775 0    50   Input ~ 0
IN_A_I
Wire Wire Line
	12250 1775 12350 1775
Wire Wire Line
	13725 1675 13825 1675
Connection ~ 13725 1675
$Comp
L linear:TL072 U4
U 1 1 5BDB0859
P 14850 1775
F 0 "U4" H 14825 1950 50  0000 L CNN
F 1 "TLV2333/OPA2333" H 14850 1625 50  0000 L CNN
F 2 "Housings_SOIC:SOIC-8_3.9x4.9mm_Pitch1.27mm" H 14850 1775 50  0001 C CNN
F 3 "http://www.ti.com/lit/ds/symlink/tl071.pdf" H 14850 1775 50  0001 C CNN
	1    14850 1775
	1    0    0    -1  
$EndComp
$Comp
L Device:R R8
U 1 1 5BDB090B
P 13975 1675
F 0 "R8" V 13768 1675 50  0000 C CNN
F 1 "10K" V 13859 1675 50  0000 C CNN
F 2 "Resistors_SMD:R_0603_HandSoldering" V 13905 1675 50  0001 C CNN
F 3 "~" H 13975 1675 50  0001 C CNN
	1    13975 1675
	0    1    1    0   
$EndComp
Wire Wire Line
	14550 1875 14550 2175
Wire Wire Line
	14550 2175 15200 2175
Wire Wire Line
	15200 2175 15200 1775
Wire Wire Line
	15200 1775 15150 1775
Wire Wire Line
	15200 1775 15350 1775
Connection ~ 15200 1775
$Comp
L power:GNDA #PWR0125
U 1 1 5BDE8E2B
P 14275 2200
F 0 "#PWR0125" H 14275 1950 50  0001 C CNN
F 1 "GNDA" H 14280 2027 50  0000 C CNN
F 2 "" H 14275 2200 50  0001 C CNN
F 3 "" H 14275 2200 50  0001 C CNN
	1    14275 2200
	1    0    0    -1  
$EndComp
$Comp
L power:+3.3VA #PWR0126
U 1 1 5BDF463D
P 14275 1175
F 0 "#PWR0126" H 14275 1025 50  0001 C CNN
F 1 "+3.3VA" H 14290 1348 50  0000 C CNN
F 2 "" H 14275 1175 50  0001 C CNN
F 3 "" H 14275 1175 50  0001 C CNN
	1    14275 1175
	1    0    0    -1  
$EndComp
Wire Wire Line
	14275 1175 14275 1250
$Comp
L power:GNDA #PWR0127
U 1 1 5BE00199
P 14750 2275
F 0 "#PWR0127" H 14750 2025 50  0001 C CNN
F 1 "GNDA" H 14755 2102 50  0000 C CNN
F 2 "" H 14750 2275 50  0001 C CNN
F 3 "" H 14750 2275 50  0001 C CNN
	1    14750 2275
	1    0    0    -1  
$EndComp
$Comp
L power:+3.3VA #PWR0128
U 1 1 5BE001FB
P 14750 1350
F 0 "#PWR0128" H 14750 1200 50  0001 C CNN
F 1 "+3.3VA" H 14765 1523 50  0000 C CNN
F 2 "" H 14750 1350 50  0001 C CNN
F 3 "" H 14750 1350 50  0001 C CNN
	1    14750 1350
	1    0    0    -1  
$EndComp
Wire Wire Line
	14750 1350 14750 1475
Wire Wire Line
	14750 2075 14750 2275
$Comp
L Device:C C3
U 1 1 5BE39836
P 12950 975
F 0 "C3" V 12698 975 50  0000 C CNN
F 1 "10pF" V 12789 975 50  0000 C CNN
F 2 "Capacitors_SMD:C_0603_HandSoldering" H 12988 825 50  0001 C CNN
F 3 "~" H 12950 975 50  0001 C CNN
	1    12950 975 
	0    1    1    0   
$EndComp
Wire Wire Line
	12725 1350 12725 975 
Wire Wire Line
	12725 975  12800 975 
Connection ~ 12725 1350
Wire Wire Line
	13100 975  13725 975 
Wire Wire Line
	13725 975  13725 1350
Connection ~ 13725 1350
$Comp
L Device:D_Schottky_x2_Serial_AKC D1
U 1 1 5BE50EE2
P 14275 1550
F 0 "D1" V 14321 1629 50  0000 L CNN
F 1 "BAR43SFILM" V 14575 1575 50  0000 L CNN
F 2 "TO_SOT_Packages_SMD:SOT-23_Handsoldering" H 14275 1550 50  0001 C CNN
F 3 "~" H 14275 1550 50  0001 C CNN
	1    14275 1550
	0    -1   -1   0   
$EndComp
Wire Wire Line
	14275 1850 14275 2200
Wire Wire Line
	14125 1675 14125 1900
Wire Wire Line
	14125 1900 14425 1900
Wire Wire Line
	14425 1900 14425 1675
Wire Wire Line
	14425 1675 14475 1675
Wire Wire Line
	14475 1550 14475 1675
Connection ~ 14475 1675
Wire Wire Line
	14475 1675 14550 1675
$Comp
L linear:TL072 U3
U 2 1 5BF1B0D7
P 13425 3425
F 0 "U3" H 13400 3600 50  0000 L CNN
F 1 "OPA2197" H 13425 3275 50  0000 L CNN
F 2 "Housings_SOIC:SOIC-8_3.9x4.9mm_Pitch1.27mm" H 13425 3425 50  0001 C CNN
F 3 "http://www.ti.com/lit/ds/symlink/tl071.pdf" H 13425 3425 50  0001 C CNN
	2    13425 3425
	1    0    0    -1  
$EndComp
$Comp
L power:+15V #PWR0129
U 1 1 5BF1B0DD
P 13325 3050
F 0 "#PWR0129" H 13325 2900 50  0001 C CNN
F 1 "+15V" H 13340 3223 50  0000 C CNN
F 2 "" H 13325 3050 50  0001 C CNN
F 3 "" H 13325 3050 50  0001 C CNN
	1    13325 3050
	1    0    0    -1  
$EndComp
$Comp
L power:-15V #PWR0130
U 1 1 5BF1B0E3
P 13325 3800
F 0 "#PWR0130" H 13325 3900 50  0001 C CNN
F 1 "-15V" H 13340 3973 50  0000 C CNN
F 2 "" H 13325 3800 50  0001 C CNN
F 3 "" H 13325 3800 50  0001 C CNN
	1    13325 3800
	-1   0    0    1   
$EndComp
$Comp
L power:GNDREF #PWR0131
U 1 1 5BF1B0E9
P 11775 3650
F 0 "#PWR0131" H 11775 3400 50  0001 C CNN
F 1 "GNDREF" H 11780 3477 50  0000 C CNN
F 2 "1,65V" H 11900 3675 50  0000 C CNN
F 3 "" H 11775 3650 50  0001 C CNN
	1    11775 3650
	1    0    0    -1  
$EndComp
Wire Wire Line
	13325 3725 13325 3800
Wire Wire Line
	13325 3050 13325 3125
$Comp
L Device:R R5
U 1 1 5BF1B0F3
P 12500 3525
F 0 "R5" V 12600 3525 50  0000 C CNN
F 1 "10K" V 12400 3525 50  0000 C CNN
F 2 "Resistors_SMD:R_0603_HandSoldering" V 12430 3525 50  0001 C CNN
F 3 "~" H 12500 3525 50  0001 C CNN
	1    12500 3525
	0    1    1    0   
$EndComp
$Comp
L Device:R R7
U 1 1 5BF1B0F9
P 12950 3100
F 0 "R7" V 12743 3100 50  0000 C CNN
F 1 "10K" V 12834 3100 50  0000 C CNN
F 2 "Resistors_SMD:R_0603_HandSoldering" V 12880 3100 50  0001 C CNN
F 3 "~" H 12950 3100 50  0001 C CNN
	1    12950 3100
	0    1    1    0   
$EndComp
Wire Wire Line
	13125 3525 12725 3525
Connection ~ 12725 3525
Wire Wire Line
	12725 3525 12650 3525
Wire Wire Line
	12725 3525 12725 3100
Wire Wire Line
	12725 3100 12800 3100
Wire Wire Line
	13100 3100 13725 3100
Wire Wire Line
	13725 3100 13725 3425
Text GLabel 15350 3525 2    50   Input ~ 0
IN_A_V_S
Text GLabel 12250 3525 0    50   Input ~ 0
IN_A_V
Wire Wire Line
	12250 3525 12350 3525
Wire Wire Line
	13725 3425 13825 3425
Connection ~ 13725 3425
$Comp
L linear:TL072 U4
U 2 1 5BF1B10B
P 14850 3525
F 0 "U4" H 14825 3700 50  0000 L CNN
F 1 "TLV2333/OPA2333" H 14850 3375 50  0000 L CNN
F 2 "Housings_SOIC:SOIC-8_3.9x4.9mm_Pitch1.27mm" H 14850 3525 50  0001 C CNN
F 3 "http://www.ti.com/lit/ds/symlink/tl071.pdf" H 14850 3525 50  0001 C CNN
	2    14850 3525
	1    0    0    -1  
$EndComp
$Comp
L Device:R R9
U 1 1 5BF1B111
P 13975 3425
F 0 "R9" V 13768 3425 50  0000 C CNN
F 1 "10K" V 13859 3425 50  0000 C CNN
F 2 "Resistors_SMD:R_0603_HandSoldering" V 13905 3425 50  0001 C CNN
F 3 "~" H 13975 3425 50  0001 C CNN
	1    13975 3425
	0    1    1    0   
$EndComp
Wire Wire Line
	14550 3625 14550 3925
Wire Wire Line
	14550 3925 15200 3925
Wire Wire Line
	15200 3925 15200 3525
Wire Wire Line
	15200 3525 15150 3525
Wire Wire Line
	15200 3525 15350 3525
Connection ~ 15200 3525
$Comp
L power:GNDA #PWR0132
U 1 1 5BF1B11D
P 14275 3950
F 0 "#PWR0132" H 14275 3700 50  0001 C CNN
F 1 "GNDA" H 14280 3777 50  0000 C CNN
F 2 "" H 14275 3950 50  0001 C CNN
F 3 "" H 14275 3950 50  0001 C CNN
	1    14275 3950
	1    0    0    -1  
$EndComp
$Comp
L power:+3.3VA #PWR0133
U 1 1 5BF1B123
P 14275 2925
F 0 "#PWR0133" H 14275 2775 50  0001 C CNN
F 1 "+3.3VA" H 14290 3098 50  0000 C CNN
F 2 "" H 14275 2925 50  0001 C CNN
F 3 "" H 14275 2925 50  0001 C CNN
	1    14275 2925
	1    0    0    -1  
$EndComp
Wire Wire Line
	14275 2925 14275 3000
$Comp
L power:GNDA #PWR0134
U 1 1 5BF1B12A
P 14750 4025
F 0 "#PWR0134" H 14750 3775 50  0001 C CNN
F 1 "GNDA" H 14755 3852 50  0000 C CNN
F 2 "" H 14750 4025 50  0001 C CNN
F 3 "" H 14750 4025 50  0001 C CNN
	1    14750 4025
	1    0    0    -1  
$EndComp
$Comp
L power:+3.3VA #PWR0135
U 1 1 5BF1B130
P 14750 3100
F 0 "#PWR0135" H 14750 2950 50  0001 C CNN
F 1 "+3.3VA" H 14765 3273 50  0000 C CNN
F 2 "" H 14750 3100 50  0001 C CNN
F 3 "" H 14750 3100 50  0001 C CNN
	1    14750 3100
	1    0    0    -1  
$EndComp
Wire Wire Line
	14750 3100 14750 3225
Wire Wire Line
	14750 3825 14750 4025
$Comp
L Device:C C4
U 1 1 5BF1B138
P 12950 2725
F 0 "C4" V 12698 2725 50  0000 C CNN
F 1 "10pF" V 12789 2725 50  0000 C CNN
F 2 "Capacitors_SMD:C_0603_HandSoldering" H 12988 2575 50  0001 C CNN
F 3 "~" H 12950 2725 50  0001 C CNN
	1    12950 2725
	0    1    1    0   
$EndComp
Wire Wire Line
	12725 3100 12725 2725
Wire Wire Line
	12725 2725 12800 2725
Connection ~ 12725 3100
Wire Wire Line
	13100 2725 13725 2725
Wire Wire Line
	13725 2725 13725 3100
Connection ~ 13725 3100
$Comp
L Device:D_Schottky_x2_Serial_AKC D2
U 1 1 5BF1B144
P 14275 3300
F 0 "D2" V 14321 3379 50  0000 L CNN
F 1 "BAR43SFILM" V 14575 3325 50  0000 L CNN
F 2 "TO_SOT_Packages_SMD:SOT-23_Handsoldering" H 14275 3300 50  0001 C CNN
F 3 "~" H 14275 3300 50  0001 C CNN
	1    14275 3300
	0    -1   -1   0   
$EndComp
Wire Wire Line
	14275 3600 14275 3950
Wire Wire Line
	14125 3425 14125 3650
Wire Wire Line
	14125 3650 14425 3650
Wire Wire Line
	14425 3650 14425 3425
Wire Wire Line
	14425 3425 14475 3425
Wire Wire Line
	14475 3300 14475 3425
Connection ~ 14475 3425
Wire Wire Line
	14475 3425 14550 3425
$Comp
L conn:Conn_02x07_Odd_Even J6
U 1 1 5BF28891
P 3075 3600
F 0 "J6" H 3125 4117 50  0000 C CNN
F 1 "Ethernet" H 3125 4026 50  0000 C CNN
F 2 "" H 3075 3600 50  0001 C CNN
F 3 "~" H 3075 3600 50  0001 C CNN
	1    3075 3600
	1    0    0    -1  
$EndComp
Text GLabel 2750 3300 0    50   Input ~ 0
ETH_TXD1
Text GLabel 2750 3400 0    50   Input ~ 0
ETH_TX_EN
Text GLabel 3500 3400 2    50   Input ~ 0
ETH_TXD0
Text GLabel 2750 3500 0    50   Input ~ 0
ETH_RXD0
Text GLabel 3500 3500 2    50   Input ~ 0
ETH_RXD1
Text GLabel 2750 3600 0    50   Input ~ 0
ETH_REF_CLK
Text GLabel 3500 3600 2    50   Input ~ 0
ETH_CRS_DV
Text GLabel 3500 3700 2    50   Input ~ 0
ETH_MDC
Text GLabel 2750 3700 0    50   Input ~ 0
ETH_MDIO
$Comp
L power:GND #PWR0136
U 1 1 5BF29184
P 3125 4050
F 0 "#PWR0136" H 3125 3800 50  0001 C CNN
F 1 "GND" H 3130 3877 50  0000 C CNN
F 2 "" H 3125 4050 50  0001 C CNN
F 3 "" H 3125 4050 50  0001 C CNN
	1    3125 4050
	1    0    0    -1  
$EndComp
$Comp
L power:+3.3V #PWR0137
U 1 1 5BF291E9
P 3125 2925
F 0 "#PWR0137" H 3125 2775 50  0001 C CNN
F 1 "+3.3V" H 3140 3098 50  0000 C CNN
F 2 "" H 3125 2925 50  0001 C CNN
F 3 "" H 3125 2925 50  0001 C CNN
	1    3125 2925
	1    0    0    -1  
$EndComp
Wire Wire Line
	3125 2925 3425 2925
Wire Wire Line
	3425 2925 3425 3900
Wire Wire Line
	3425 3900 3375 3900
Wire Wire Line
	3125 2925 2825 2925
Wire Wire Line
	2825 2925 2825 3900
Wire Wire Line
	2825 3900 2875 3900
Connection ~ 3125 2925
Wire Wire Line
	2875 3800 2775 3800
Wire Wire Line
	2775 3800 2775 4050
Wire Wire Line
	2775 4050 3125 4050
Wire Wire Line
	3125 4050 3475 4050
Wire Wire Line
	3475 4050 3475 3800
Wire Wire Line
	3475 3800 3375 3800
Connection ~ 3125 4050
Wire Wire Line
	2750 3300 2875 3300
Wire Wire Line
	2750 3400 2875 3400
Wire Wire Line
	2750 3500 2875 3500
Wire Wire Line
	2750 3600 2875 3600
Wire Wire Line
	2750 3700 2875 3700
Wire Wire Line
	3375 3400 3500 3400
Wire Wire Line
	3375 3500 3500 3500
Wire Wire Line
	3375 3600 3500 3600
Wire Wire Line
	3375 3700 3500 3700
NoConn ~ 3375 3300
$Comp
L Device:Crystal Y1
U 1 1 5C01FDA3
P 4425 2750
F 0 "Y1" V 4379 2881 50  0000 L CNN
F 1 "8MHz" V 4470 2881 50  0000 L CNN
F 2 "" H 4425 2750 50  0001 C CNN
F 3 "~" H 4425 2750 50  0001 C CNN
	1    4425 2750
	0    1    1    0   
$EndComp
$Comp
L power:GND #PWR0138
U 1 1 5C01FF0C
P 3800 2975
F 0 "#PWR0138" H 3800 2725 50  0001 C CNN
F 1 "GND" H 3805 2802 50  0000 C CNN
F 2 "" H 3800 2975 50  0001 C CNN
F 3 "" H 3800 2975 50  0001 C CNN
	1    3800 2975
	1    0    0    -1  
$EndComp
$Comp
L Device:C C5
U 1 1 5C01FFB2
P 4050 2600
F 0 "C5" V 3798 2600 50  0000 C CNN
F 1 "10pF" V 3889 2600 50  0000 C CNN
F 2 "Capacitors_SMD:C_0603_HandSoldering" H 4088 2450 50  0001 C CNN
F 3 "~" H 4050 2600 50  0001 C CNN
	1    4050 2600
	0    1    1    0   
$EndComp
$Comp
L Device:C C6
U 1 1 5C02009C
P 4050 2900
F 0 "C6" V 3798 2900 50  0000 C CNN
F 1 "10pF" V 3889 2900 50  0000 C CNN
F 2 "Capacitors_SMD:C_0603_HandSoldering" H 4088 2750 50  0001 C CNN
F 3 "~" H 4050 2900 50  0001 C CNN
	1    4050 2900
	0    1    1    0   
$EndComp
Wire Wire Line
	4775 2900 4425 2900
Wire Wire Line
	4425 2900 4200 2900
Connection ~ 4425 2900
Wire Wire Line
	4775 2800 4775 2600
Wire Wire Line
	4775 2600 4425 2600
Wire Wire Line
	4425 2600 4200 2600
Connection ~ 4425 2600
Wire Wire Line
	3900 2600 3800 2600
Wire Wire Line
	3800 2600 3800 2900
Wire Wire Line
	3900 2900 3800 2900
Connection ~ 3800 2900
Wire Wire Line
	3800 2900 3800 2975
$Comp
L Device:Crystal Y2
U 1 1 5C0850B8
P 6925 6350
F 0 "Y2" V 6879 6219 50  0000 R CNN
F 1 "32,768kHz" V 6970 6219 50  0000 R CNN
F 2 "" H 6925 6350 50  0001 C CNN
F 3 "~" H 6925 6350 50  0001 C CNN
	1    6925 6350
	0    -1   1    0   
$EndComp
$Comp
L power:GND #PWR0139
U 1 1 5C0850BE
P 7550 6575
F 0 "#PWR0139" H 7550 6325 50  0001 C CNN
F 1 "GND" H 7555 6402 50  0000 C CNN
F 2 "" H 7550 6575 50  0001 C CNN
F 3 "" H 7550 6575 50  0001 C CNN
	1    7550 6575
	-1   0    0    -1  
$EndComp
$Comp
L Device:C C7
U 1 1 5C0850C4
P 7300 6200
F 0 "C7" V 7048 6200 50  0000 C CNN
F 1 "10pF" V 7139 6200 50  0000 C CNN
F 2 "Capacitors_SMD:C_0603_HandSoldering" H 7338 6050 50  0001 C CNN
F 3 "~" H 7300 6200 50  0001 C CNN
	1    7300 6200
	0    -1   1    0   
$EndComp
$Comp
L Device:C C8
U 1 1 5C0850CA
P 7300 6500
F 0 "C8" V 7048 6500 50  0000 C CNN
F 1 "10pF" V 7139 6500 50  0000 C CNN
F 2 "Capacitors_SMD:C_0603_HandSoldering" H 7338 6350 50  0001 C CNN
F 3 "~" H 7300 6500 50  0001 C CNN
	1    7300 6500
	0    -1   1    0   
$EndComp
Wire Wire Line
	6575 6500 6925 6500
Wire Wire Line
	6925 6500 7150 6500
Connection ~ 6925 6500
Wire Wire Line
	6575 6200 6925 6200
Wire Wire Line
	6925 6200 7150 6200
Connection ~ 6925 6200
Wire Wire Line
	7450 6200 7550 6200
Wire Wire Line
	7550 6200 7550 6500
Wire Wire Line
	7450 6500 7550 6500
Connection ~ 7550 6500
Wire Wire Line
	7550 6500 7550 6575
Wire Wire Line
	6575 6300 6575 6500
$Comp
L conn:Conn_01x08 J7
U 1 1 5C0D19C4
P 1100 7675
F 0 "J7" H 1020 8192 50  0000 C CNN
F 1 "PWR" H 1020 8101 50  0000 C CNN
F 2 "" H 1100 7675 50  0001 C CNN
F 3 "~" H 1100 7675 50  0001 C CNN
	1    1100 7675
	-1   0    0    -1  
$EndComp
$Comp
L power:GNDA #PWR0140
U 1 1 5C0D1B25
P 1375 8150
F 0 "#PWR0140" H 1375 7900 50  0001 C CNN
F 1 "GNDA" H 1380 7977 50  0000 C CNN
F 2 "" H 1375 8150 50  0001 C CNN
F 3 "" H 1375 8150 50  0001 C CNN
	1    1375 8150
	1    0    0    -1  
$EndComp
$Comp
L power:GNDREF #PWR0141
U 1 1 5C0D1B98
P 1650 8150
F 0 "#PWR0141" H 1650 7900 50  0001 C CNN
F 1 "GNDREF" H 1655 7977 50  0000 C CNN
F 2 "" H 1650 8150 50  0001 C CNN
F 3 "" H 1650 8150 50  0001 C CNN
	1    1650 8150
	1    0    0    -1  
$EndComp
$Comp
L power:+3.3VA #PWR0142
U 1 1 5C0D1C19
P 2250 7300
F 0 "#PWR0142" H 2250 7150 50  0001 C CNN
F 1 "+3.3VA" H 2265 7473 50  0000 C CNN
F 2 "" H 2250 7300 50  0001 C CNN
F 3 "" H 2250 7300 50  0001 C CNN
	1    2250 7300
	1    0    0    -1  
$EndComp
$Comp
L power:-15V #PWR0143
U 1 1 5C0D1CA1
P 2000 7300
F 0 "#PWR0143" H 2000 7400 50  0001 C CNN
F 1 "-15V" H 2015 7473 50  0000 C CNN
F 2 "" H 2000 7300 50  0001 C CNN
F 3 "" H 2000 7300 50  0001 C CNN
	1    2000 7300
	1    0    0    -1  
$EndComp
$Comp
L power:GND #PWR0144
U 1 1 5C0D1D14
P 1925 8150
F 0 "#PWR0144" H 1925 7900 50  0001 C CNN
F 1 "GND" H 1930 7977 50  0000 C CNN
F 2 "" H 1925 8150 50  0001 C CNN
F 3 "" H 1925 8150 50  0001 C CNN
	1    1925 8150
	1    0    0    -1  
$EndComp
$Comp
L power:+3.3V #PWR0145
U 1 1 5C0D1DA3
P 1775 7300
F 0 "#PWR0145" H 1775 7150 50  0001 C CNN
F 1 "+3.3V" H 1790 7473 50  0000 C CNN
F 2 "" H 1775 7300 50  0001 C CNN
F 3 "" H 1775 7300 50  0001 C CNN
	1    1775 7300
	1    0    0    -1  
$EndComp
$Comp
L power:+5V #PWR0146
U 1 1 5C0D1E1D
P 1575 7300
F 0 "#PWR0146" H 1575 7150 50  0001 C CNN
F 1 "+5V" H 1590 7473 50  0000 C CNN
F 2 "" H 1575 7300 50  0001 C CNN
F 3 "" H 1575 7300 50  0001 C CNN
	1    1575 7300
	1    0    0    -1  
$EndComp
$Comp
L power:+15V #PWR0147
U 1 1 5C0D1E9E
P 1375 7300
F 0 "#PWR0147" H 1375 7150 50  0001 C CNN
F 1 "+15V" H 1390 7473 50  0000 C CNN
F 2 "" H 1375 7300 50  0001 C CNN
F 3 "" H 1375 7300 50  0001 C CNN
	1    1375 7300
	1    0    0    -1  
$EndComp
Wire Wire Line
	1300 7375 1375 7375
Wire Wire Line
	1375 7375 1375 7300
Wire Wire Line
	1300 7475 1575 7475
Wire Wire Line
	1575 7475 1575 7300
Wire Wire Line
	1775 7300 1775 7575
Wire Wire Line
	1775 7575 1300 7575
Wire Wire Line
	1300 8075 1375 8075
Wire Wire Line
	1375 8075 1375 8150
Wire Wire Line
	1650 7975 1650 8150
Wire Wire Line
	1300 7975 1650 7975
Wire Wire Line
	1300 7675 1925 7675
Wire Wire Line
	1925 7675 1925 8150
Wire Wire Line
	2000 7775 2000 7300
Wire Wire Line
	2250 7300 2250 7875
Wire Wire Line
	2250 7875 1300 7875
Wire Wire Line
	1300 7775 2000 7775
Text GLabel 6700 2800 2    50   Input ~ 0
SWD_SWCLK
Text GLabel 6700 2700 2    50   Input ~ 0
SWD_SWDIO
Text GLabel 4625 1400 0    50   Input ~ 0
SWD_NRST
Text GLabel 6700 3400 2    50   Input ~ 0
SWD_SWO
Wire Wire Line
	6575 2700 6700 2700
Wire Wire Line
	6575 2800 6700 2800
Wire Wire Line
	6575 3400 6700 3400
Wire Wire Line
	4775 1400 4625 1400
Wire Wire Line
	4625 4800 4775 4800
Wire Wire Line
	4775 4900 4625 4900
Wire Wire Line
	4775 5600 4625 5600
Wire Wire Line
	4775 5700 4625 5700
Wire Wire Line
	4775 5800 4625 5800
Wire Wire Line
	4775 6200 4650 6200
Wire Wire Line
	4775 6300 4650 6300
Text GLabel 4675 5900 0    50   Input ~ 0
A16
Text GLabel 4675 6000 0    50   Input ~ 0
A17
Text GLabel 4675 6100 0    50   Input ~ 0
A18
Text GLabel 4675 3400 0    50   Input ~ 0
A19
Text GLabel 4675 3500 0    50   Input ~ 0
A20
Text GLabel 4675 3600 0    50   Input ~ 0
A21
Text GLabel 4675 3700 0    50   Input ~ 0
A22
Text GLabel 4675 3300 0    50   Input ~ 0
A23
NoConn ~ 6575 1900
NoConn ~ 6575 2000
NoConn ~ 6575 2200
NoConn ~ 6575 2300
NoConn ~ 6575 2900
NoConn ~ 6575 3100
NoConn ~ 6575 3200
NoConn ~ 6575 3300
NoConn ~ 6575 3500
NoConn ~ 6575 3600
NoConn ~ 6575 3900
NoConn ~ 6575 4000
NoConn ~ 6575 4100
NoConn ~ 6575 4800
NoConn ~ 6575 5000
NoConn ~ 6575 5100
NoConn ~ 6575 5400
NoConn ~ 6575 5500
NoConn ~ 6575 5700
NoConn ~ 6575 5800
NoConn ~ 6575 5900
NoConn ~ 6575 6000
NoConn ~ 6575 6100
NoConn ~ 4775 5100
NoConn ~ 4775 5400
Text GLabel 4675 5200 0    50   Input ~ 0
NOE
Text GLabel 4675 5300 0    50   Input ~ 0
NWE
Text GLabel 4675 5500 0    50   Input ~ 0
NE1
Wire Wire Line
	4775 5200 4675 5200
Wire Wire Line
	4775 5300 4675 5300
Wire Wire Line
	4775 5500 4675 5500
Wire Notes Line
	2550 4875 4075 4875
Text Notes 2975 5000 0    50   ~ 0
LCD - 6800 IF
Text GLabel 2925 5100 0    50   Input ~ 0
LCD_CS
Text GLabel 2925 5200 0    50   Input ~ 0
LCD_RD
Text GLabel 2925 5300 0    50   Input ~ 0
LCD_WR
Text GLabel 2925 5400 0    50   Input ~ 0
LCD_RS
Text GLabel 3025 5100 2    50   Input ~ 0
NE1
Text GLabel 3025 5300 2    50   Input ~ 0
NWE
Text GLabel 3025 5400 2    50   Input ~ 0
A16
Text GLabel 3025 5200 2    50   Input ~ 0
A23
Text Notes 3250 5225 0    50   ~ 0
LCD_RD = LCD_E ???
Wire Notes Line
	2550 5475 4075 5475
Wire Notes Line
	4075 4875 4075 5475
Wire Notes Line
	2550 4875 2550 5475
Wire Wire Line
	2925 5100 3025 5100
Wire Wire Line
	2925 5200 3025 5200
Wire Wire Line
	2925 5300 3025 5300
Wire Wire Line
	2925 5400 3025 5400
Wire Wire Line
	4675 5900 4775 5900
Wire Wire Line
	4675 6000 4775 6000
Wire Wire Line
	4675 6100 4775 6100
NoConn ~ 1175 5025
NoConn ~ 1675 6725
$Comp
L Device:R R?
U 1 1 5BD1A44B
P 12500 3325
F 0 "R?" V 12293 3325 50  0000 C CNN
F 1 "10K" V 12384 3325 50  0000 C CNN
F 2 "Resistors_SMD:R_0603_HandSoldering" V 12430 3325 50  0001 C CNN
F 3 "~" H 12500 3325 50  0001 C CNN
	1    12500 3325
	0    1    1    0   
$EndComp
$Comp
L Device:R R?
U 1 1 5BD1A8AD
P 12925 3800
F 0 "R?" V 12718 3800 50  0000 C CNN
F 1 "10K" V 12809 3800 50  0000 C CNN
F 2 "Resistors_SMD:R_0603_HandSoldering" V 12855 3800 50  0001 C CNN
F 3 "~" H 12925 3800 50  0001 C CNN
	1    12925 3800
	-1   0    0    1   
$EndComp
$Comp
L Device:R R?
U 1 1 5BD1A997
P 12500 1575
F 0 "R?" V 12293 1575 50  0000 C CNN
F 1 "10K" V 12384 1575 50  0000 C CNN
F 2 "Resistors_SMD:R_0603_HandSoldering" V 12430 1575 50  0001 C CNN
F 3 "~" H 12500 1575 50  0001 C CNN
	1    12500 1575
	0    1    1    0   
$EndComp
$Comp
L Device:R R?
U 1 1 5BD4C721
P 12925 2000
F 0 "R?" V 12718 2000 50  0000 C CNN
F 1 "10K" V 12809 2000 50  0000 C CNN
F 2 "Resistors_SMD:R_0603_HandSoldering" V 12855 2000 50  0001 C CNN
F 3 "~" H 12925 2000 50  0001 C CNN
	1    12925 2000
	-1   0    0    1   
$EndComp
Wire Wire Line
	13125 1575 12925 1575
Wire Wire Line
	12925 1575 12925 1850
Wire Wire Line
	12925 1575 12650 1575
Connection ~ 12925 1575
Wire Wire Line
	12350 1575 11825 1575
Wire Wire Line
	11825 1575 11825 1950
Wire Wire Line
	11775 3650 11775 3325
Wire Wire Line
	11775 3325 12350 3325
Wire Wire Line
	12650 3325 12925 3325
Wire Wire Line
	12925 3650 12925 3325
Connection ~ 12925 3325
Wire Wire Line
	12925 3325 13125 3325
$Comp
L power:GNDA #PWR?
U 1 1 5BDE63DD
P 12925 4000
F 0 "#PWR?" H 12925 3750 50  0001 C CNN
F 1 "GNDA" H 12930 3827 50  0000 C CNN
F 2 "" H 12925 4000 50  0001 C CNN
F 3 "" H 12925 4000 50  0001 C CNN
	1    12925 4000
	1    0    0    -1  
$EndComp
$Comp
L power:GNDA #PWR?
U 1 1 5BDE6463
P 12925 2200
F 0 "#PWR?" H 12925 1950 50  0001 C CNN
F 1 "GNDA" H 12930 2027 50  0000 C CNN
F 2 "" H 12925 2200 50  0001 C CNN
F 3 "" H 12925 2200 50  0001 C CNN
	1    12925 2200
	1    0    0    -1  
$EndComp
Wire Wire Line
	12925 2150 12925 2200
Wire Wire Line
	12925 3950 12925 4000
$EndSCHEMATC
