EESchema Schematic File Version 2
LIBS:suf_analog_switch
LIBS:power
LIBS:device
LIBS:switches
LIBS:relays
LIBS:motors
LIBS:transistors
LIBS:conn
LIBS:linear
LIBS:regul
LIBS:74xx
LIBS:cmos4000
LIBS:adc-dac
LIBS:memory
LIBS:xilinx
LIBS:microcontrollers
LIBS:dsp
LIBS:microchip
LIBS:analog_switches
LIBS:motorola
LIBS:texas
LIBS:intel
LIBS:audio
LIBS:interface
LIBS:digital-audio
LIBS:philips
LIBS:display
LIBS:cypress
LIBS:siliconi
LIBS:opto
LIBS:atmel
LIBS:contrib
LIBS:valves
LIBS:suf_power
LIBS:MeasureAmp-cache
EELAYER 25 0
EELAYER END
$Descr A4 11693 8268
encoding utf-8
Sheet 1 1
Title "Curve Tracer / Measure Amplifier"
Date "2018-08-10"
Rev "0001"
Comp ""
Comment1 ""
Comment2 ""
Comment3 ""
Comment4 ""
$EndDescr
$Comp
L DG441 U1
U 4 1 5B56C4ED
P 5075 5825
F 0 "U1" H 5275 5680 50  0000 C CNN
F 1 "DG451" H 5275 5975 50  0000 C CNN
F 2 "Housings_SOIC:SOIC-16_3.9x9.9mm_Pitch1.27mm" H 5075 5825 60  0001 C CNN
F 3 "" H 5075 5825 60  0001 C CNN
	4    5075 5825
	1    0    0    -1  
$EndComp
$Comp
L DG441 U1
U 3 1 5B56C550
P 5750 5825
F 0 "U1" H 5950 5680 50  0000 C CNN
F 1 "DG451" H 5925 6000 50  0000 C CNN
F 2 "Housings_SOIC:SOIC-16_3.9x9.9mm_Pitch1.27mm" H 5750 5825 60  0001 C CNN
F 3 "" H 5750 5825 60  0001 C CNN
	3    5750 5825
	1    0    0    -1  
$EndComp
$Comp
L R R5
U 1 1 5B56C5BB
P 5075 5250
F 0 "R5" V 5155 5250 50  0000 C CNN
F 1 "90K" V 5075 5250 50  0000 C CNN
F 2 "Resistors_SMD:R_0603_HandSoldering" V 5005 5250 50  0001 C CNN
F 3 "" H 5075 5250 50  0001 C CNN
	1    5075 5250
	0    1    1    0   
$EndComp
$Comp
L R R6
U 1 1 5B56C6DA
P 5750 5250
F 0 "R6" V 5830 5250 50  0000 C CNN
F 1 "900K" V 5750 5250 50  0000 C CNN
F 2 "Resistors_SMD:R_0603_HandSoldering" V 5680 5250 50  0001 C CNN
F 3 "" H 5750 5250 50  0001 C CNN
	1    5750 5250
	0    1    1    0   
$EndComp
$Comp
L R R4
U 1 1 5B56C715
P 4550 5250
F 0 "R4" V 4630 5250 50  0000 C CNN
F 1 "9K" V 4550 5250 50  0000 C CNN
F 2 "Resistors_SMD:R_0603_HandSoldering" V 4480 5250 50  0001 C CNN
F 3 "" H 4550 5250 50  0001 C CNN
	1    4550 5250
	0    1    1    0   
$EndComp
$Comp
L R R3
U 1 1 5B56C745
P 4325 5575
F 0 "R3" V 4405 5575 50  0000 C CNN
F 1 "1K" V 4325 5575 50  0000 C CNN
F 2 "Resistors_SMD:R_0603_HandSoldering" V 4255 5575 50  0001 C CNN
F 3 "" H 4325 5575 50  0001 C CNN
	1    4325 5575
	-1   0    0    1   
$EndComp
$Comp
L DG441 U1
U 2 1 5B56C8CB
P 4325 6125
F 0 "U1" H 4525 5980 50  0000 C CNN
F 1 "DG451" H 4525 6275 50  0000 C CNN
F 2 "Housings_SOIC:SOIC-16_3.9x9.9mm_Pitch1.27mm" H 4325 6125 60  0001 C CNN
F 3 "" H 4325 6125 60  0001 C CNN
	2    4325 6125
	0    -1   -1   0   
$EndComp
$Comp
L DG441 U1
U 1 1 5B56CDC3
P 3850 6125
F 0 "U1" H 4050 5980 50  0000 C CNN
F 1 "DG451" H 4050 6275 50  0000 C CNN
F 2 "Housings_SOIC:SOIC-16_3.9x9.9mm_Pitch1.27mm" H 3850 6125 60  0001 C CNN
F 3 "" H 3850 6125 60  0001 C CNN
	1    3850 6125
	0    -1   -1   0   
$EndComp
$Comp
L R R2
U 1 1 5B56D78F
P 3850 5575
F 0 "R2" V 3930 5575 50  0000 C CNN
F 1 "10K" V 3850 5575 50  0000 C CNN
F 2 "Resistors_SMD:R_0603_HandSoldering" V 3780 5575 50  0001 C CNN
F 3 "" H 3850 5575 50  0001 C CNN
	1    3850 5575
	-1   0    0    1   
$EndComp
$Comp
L R R1
U 1 1 5B56D7EB
P 3600 4575
F 0 "R1" V 3680 4575 50  0000 C CNN
F 1 "90K" V 3600 4575 50  0000 C CNN
F 2 "Resistors_SMD:R_0603_HandSoldering" V 3530 4575 50  0001 C CNN
F 3 "" H 3600 4575 50  0001 C CNN
	1    3600 4575
	0    -1   -1   0   
$EndComp
Wire Wire Line
	3750 4575 4750 4575
Wire Wire Line
	3850 5425 3850 4575
Connection ~ 3850 4575
Wire Wire Line
	3850 5725 3850 5825
Wire Wire Line
	4325 5825 4325 5725
Wire Wire Line
	4750 4775 4325 4775
Wire Wire Line
	4325 4775 4325 5425
Wire Wire Line
	4400 5250 4325 5250
Connection ~ 4325 5250
Wire Wire Line
	4700 5250 4925 5250
Wire Wire Line
	5225 5250 5600 5250
Wire Wire Line
	6050 4675 6050 5825
Wire Wire Line
	5350 4675 6150 4675
Wire Wire Line
	4775 5825 4775 5250
Connection ~ 4775 5250
Wire Wire Line
	5375 5825 5450 5825
Wire Wire Line
	5900 5250 6050 5250
Connection ~ 6050 5250
Text GLabel 4000 6475 3    40   Input ~ 0
BIT3
Text GLabel 4475 6475 3    40   Input ~ 0
BIT2
Text GLabel 4725 6050 3    40   Input ~ 0
BIT1
Text GLabel 5400 6050 3    40   Input ~ 0
BIT0
Wire Wire Line
	4725 6050 4725 5975
Wire Wire Line
	4725 5975 4775 5975
Wire Wire Line
	5400 6050 5400 5975
Wire Wire Line
	5400 5975 5450 5975
Wire Wire Line
	4475 6425 4475 6475
Wire Wire Line
	4000 6425 4000 6475
$Comp
L GND #PWR01
U 1 1 5B56E831
P 3850 6475
F 0 "#PWR01" H 3850 6225 50  0001 C CNN
F 1 "GND" H 3850 6325 50  0000 C CNN
F 2 "" H 3850 6475 50  0001 C CNN
F 3 "" H 3850 6475 50  0001 C CNN
	1    3850 6475
	1    0    0    -1  
$EndComp
$Comp
L GND #PWR02
U 1 1 5B56E85B
P 4325 6475
F 0 "#PWR02" H 4325 6225 50  0001 C CNN
F 1 "GND" H 4325 6325 50  0000 C CNN
F 2 "" H 4325 6475 50  0001 C CNN
F 3 "" H 4325 6475 50  0001 C CNN
	1    4325 6475
	1    0    0    -1  
$EndComp
Wire Wire Line
	3850 6425 3850 6475
Wire Wire Line
	4325 6425 4325 6475
Text GLabel 2600 4475 0    40   Input ~ 0
Vsense
Text GLabel 6150 4675 2    40   Input ~ 0
Vout
Connection ~ 6050 4675
Wire Wire Line
	3350 4575 3450 4575
Wire Wire Line
	5425 5825 5425 5250
Connection ~ 5425 5250
Connection ~ 5425 5825
$Comp
L LM324 U2
U 1 1 5B5AE6F1
P 3050 2875
F 0 "U2" H 3050 3075 50  0000 L CNN
F 1 "OPA4192 (OPA4197)" H 3050 2675 50  0000 L CNN
F 2 "Housings_SOIC:SOIC-14_3.9x8.7mm_Pitch1.27mm" H 3000 2975 50  0001 C CNN
F 3 "" H 3100 3075 50  0001 C CNN
	1    3050 2875
	1    0    0    -1  
$EndComp
Wire Wire Line
	3400 4975 2750 4975
Wire Wire Line
	2750 4975 2750 4675
Connection ~ 3400 4575
Wire Wire Line
	2600 4475 2750 4475
Wire Wire Line
	2750 2975 2750 3275
Wire Wire Line
	2750 3275 3400 3275
Wire Wire Line
	3400 3275 3400 2775
Wire Wire Line
	3400 2875 3350 2875
$Comp
L R R7
U 1 1 5B5AEEA2
P 4500 2775
F 0 "R7" V 4580 2775 50  0000 C CNN
F 1 "100K" V 4500 2775 50  0000 C CNN
F 2 "Resistors_SMD:R_0603_HandSoldering" V 4430 2775 50  0001 C CNN
F 3 "" H 4500 2775 50  0001 C CNN
	1    4500 2775
	0    1    1    0   
$EndComp
$Comp
L R R8
U 1 1 5B5AEFCA
P 4500 2975
F 0 "R8" V 4580 2975 50  0000 C CNN
F 1 "100K" V 4500 2975 50  0000 C CNN
F 2 "Resistors_SMD:R_0603_HandSoldering" V 4430 2975 50  0001 C CNN
F 3 "" H 4500 2975 50  0001 C CNN
	1    4500 2975
	0    1    1    0   
$EndComp
Wire Wire Line
	4650 2975 4750 2975
Wire Wire Line
	4700 2975 4700 3300
Connection ~ 4700 2975
Wire Wire Line
	4650 2775 4750 2775
Connection ~ 4700 2775
$Comp
L GND #PWR03
U 1 1 5B5AF81F
P 6575 2550
F 0 "#PWR03" H 6575 2300 50  0001 C CNN
F 1 "GND" H 6575 2400 50  0000 C CNN
F 2 "" H 6575 2550 50  0001 C CNN
F 3 "" H 6575 2550 50  0001 C CNN
	1    6575 2550
	1    0    0    -1  
$EndComp
Wire Wire Line
	3400 2775 4350 2775
Connection ~ 3400 2875
Wire Wire Line
	3400 3450 4350 3450
Wire Wire Line
	4350 3450 4350 2975
$Comp
L DG441 U3
U 2 1 5B5B2FBD
P 5700 3825
F 0 "U3" H 5900 3680 50  0000 C CNN
F 1 "DG451" H 5900 3975 50  0000 C CNN
F 2 "Housings_SOIC:SOIC-16_3.9x9.9mm_Pitch1.27mm" H 5700 3825 60  0001 C CNN
F 3 "" H 5700 3825 60  0001 C CNN
	2    5700 3825
	1    0    0    -1  
$EndComp
$Comp
L DG441 U3
U 4 1 5B5B2FC3
P 6375 3825
F 0 "U3" H 6575 3680 50  0000 C CNN
F 1 "DG451" H 6550 4000 50  0000 C CNN
F 2 "Housings_SOIC:SOIC-16_3.9x9.9mm_Pitch1.27mm" H 6375 3825 60  0001 C CNN
F 3 "" H 6375 3825 60  0001 C CNN
	4    6375 3825
	1    0    0    -1  
$EndComp
$Comp
L R R12
U 1 1 5B5B2FC9
P 5700 3300
F 0 "R12" V 5780 3300 50  0000 C CNN
F 1 "90K" V 5700 3300 50  0000 C CNN
F 2 "Resistors_SMD:R_0603_HandSoldering" V 5630 3300 50  0001 C CNN
F 3 "" H 5700 3300 50  0001 C CNN
	1    5700 3300
	0    1    1    0   
$EndComp
$Comp
L R R14
U 1 1 5B5B2FCF
P 6375 3300
F 0 "R14" V 6455 3300 50  0000 C CNN
F 1 "900K" V 6375 3300 50  0000 C CNN
F 2 "Resistors_SMD:R_0603_HandSoldering" V 6305 3300 50  0001 C CNN
F 3 "" H 6375 3300 50  0001 C CNN
	1    6375 3300
	0    1    1    0   
$EndComp
$Comp
L R R10
U 1 1 5B5B2FD5
P 5175 3300
F 0 "R10" V 5255 3300 50  0000 C CNN
F 1 "10K" V 5175 3300 50  0000 C CNN
F 2 "Resistors_SMD:R_0603_HandSoldering" V 5105 3300 50  0001 C CNN
F 3 "" H 5175 3300 50  0001 C CNN
	1    5175 3300
	0    1    1    0   
$EndComp
Wire Wire Line
	5325 3300 5550 3300
Wire Wire Line
	5850 3300 6225 3300
Wire Wire Line
	5400 3825 5400 3300
Connection ~ 5400 3300
Wire Wire Line
	6000 3825 6075 3825
Text GLabel 5350 4050 3    40   Input ~ 0
BIT5
Text GLabel 6025 4050 3    40   Input ~ 0
BIT4
Wire Wire Line
	5350 4050 5350 3975
Wire Wire Line
	5350 3975 5400 3975
Wire Wire Line
	6025 4050 6025 3975
Wire Wire Line
	6025 3975 6075 3975
Wire Wire Line
	6050 3825 6050 3300
Connection ~ 6050 3300
Connection ~ 6050 3825
Wire Wire Line
	4700 1800 4925 1800
$Comp
L DG441 U3
U 1 1 5B5B5579
P 5600 2300
F 0 "U3" H 5800 2155 50  0000 C CNN
F 1 "DG451" H 5800 2450 50  0000 C CNN
F 2 "Housings_SOIC:SOIC-16_3.9x9.9mm_Pitch1.27mm" H 5600 2300 60  0001 C CNN
F 3 "" H 5600 2300 60  0001 C CNN
	1    5600 2300
	1    0    0    -1  
$EndComp
$Comp
L DG441 U3
U 3 1 5B5B557F
P 6275 2300
F 0 "U3" H 6475 2155 50  0000 C CNN
F 1 "DG451" H 6450 2475 50  0000 C CNN
F 2 "Housings_SOIC:SOIC-16_3.9x9.9mm_Pitch1.27mm" H 6275 2300 60  0001 C CNN
F 3 "" H 6275 2300 60  0001 C CNN
	3    6275 2300
	1    0    0    -1  
$EndComp
$Comp
L R R11
U 1 1 5B5B5585
P 5600 1800
F 0 "R11" V 5680 1800 50  0000 C CNN
F 1 "90K" V 5600 1800 50  0000 C CNN
F 2 "Resistors_SMD:R_0603_HandSoldering" V 5530 1800 50  0001 C CNN
F 3 "" H 5600 1800 50  0001 C CNN
	1    5600 1800
	0    1    1    0   
$EndComp
$Comp
L R R13
U 1 1 5B5B558B
P 6275 1800
F 0 "R13" V 6355 1800 50  0000 C CNN
F 1 "900K" V 6275 1800 50  0000 C CNN
F 2 "Resistors_SMD:R_0603_HandSoldering" V 6205 1800 50  0001 C CNN
F 3 "" H 6275 1800 50  0001 C CNN
	1    6275 1800
	0    1    1    0   
$EndComp
$Comp
L R R9
U 1 1 5B5B5591
P 5075 1800
F 0 "R9" V 5155 1800 50  0000 C CNN
F 1 "10K" V 5075 1800 50  0000 C CNN
F 2 "Resistors_SMD:R_0603_HandSoldering" V 5005 1800 50  0001 C CNN
F 3 "" H 5075 1800 50  0001 C CNN
	1    5075 1800
	0    1    1    0   
$EndComp
Wire Wire Line
	5225 1800 5450 1800
Wire Wire Line
	5750 1800 6125 1800
Wire Wire Line
	5300 2300 5300 1800
Connection ~ 5300 1800
Wire Wire Line
	5900 2300 5975 2300
Text GLabel 5250 2525 3    40   Input ~ 0
BIT5
Text GLabel 5925 2525 3    40   Input ~ 0
BIT4
Wire Wire Line
	5250 2525 5250 2450
Wire Wire Line
	5250 2450 5300 2450
Wire Wire Line
	5925 2525 5925 2450
Wire Wire Line
	5925 2450 5975 2450
Wire Wire Line
	5950 2300 5950 1800
Connection ~ 5950 1800
Connection ~ 5950 2300
Wire Wire Line
	6425 1800 6575 1800
Wire Wire Line
	6575 1800 6575 2550
Connection ~ 6575 2300
Wire Wire Line
	4700 2775 4700 1800
Wire Wire Line
	3400 3450 3400 4975
Wire Wire Line
	5350 2875 6675 2875
Wire Wire Line
	6675 2875 6675 3825
Wire Wire Line
	6525 3300 6875 3300
Connection ~ 6675 3300
Text GLabel 2600 2775 0    40   Input ~ 0
Isense
Wire Wire Line
	2750 2775 2600 2775
Wire Wire Line
	4700 3300 5025 3300
$Comp
L +15V #PWR04
U 1 1 5B5BE3B4
P 2950 2475
F 0 "#PWR04" H 2950 2325 50  0001 C CNN
F 1 "+15V" H 2950 2615 50  0000 C CNN
F 2 "" H 2950 2475 50  0001 C CNN
F 3 "" H 2950 2475 50  0001 C CNN
	1    2950 2475
	1    0    0    -1  
$EndComp
$Comp
L +15V #PWR05
U 1 1 5B5BE3FC
P 4950 2475
F 0 "#PWR05" H 4950 2325 50  0001 C CNN
F 1 "+15V" H 4950 2615 50  0000 C CNN
F 2 "" H 4950 2475 50  0001 C CNN
F 3 "" H 4950 2475 50  0001 C CNN
	1    4950 2475
	1    0    0    -1  
$EndComp
$Comp
L +15V #PWR06
U 1 1 5B5C0A64
P 5600 2075
F 0 "#PWR06" H 5600 1925 50  0001 C CNN
F 1 "+15V" H 5600 2215 50  0000 C CNN
F 2 "" H 5600 2075 50  0001 C CNN
F 3 "" H 5600 2075 50  0001 C CNN
	1    5600 2075
	1    0    0    -1  
$EndComp
$Comp
L +15V #PWR07
U 1 1 5B5C0AAC
P 6275 2075
F 0 "#PWR07" H 6275 1925 50  0001 C CNN
F 1 "+15V" H 6275 2215 50  0000 C CNN
F 2 "" H 6275 2075 50  0001 C CNN
F 3 "" H 6275 2075 50  0001 C CNN
	1    6275 2075
	1    0    0    -1  
$EndComp
$Comp
L +15V #PWR08
U 1 1 5B5C0AF4
P 5700 3600
F 0 "#PWR08" H 5700 3450 50  0001 C CNN
F 1 "+15V" H 5700 3740 50  0000 C CNN
F 2 "" H 5700 3600 50  0001 C CNN
F 3 "" H 5700 3600 50  0001 C CNN
	1    5700 3600
	1    0    0    -1  
$EndComp
$Comp
L +15V #PWR09
U 1 1 5B5C0B3C
P 6375 3600
F 0 "#PWR09" H 6375 3450 50  0001 C CNN
F 1 "+15V" H 6375 3740 50  0000 C CNN
F 2 "" H 6375 3600 50  0001 C CNN
F 3 "" H 6375 3600 50  0001 C CNN
	1    6375 3600
	1    0    0    -1  
$EndComp
$Comp
L +15V #PWR010
U 1 1 5B5C1954
P 2950 4200
F 0 "#PWR010" H 2950 4050 50  0001 C CNN
F 1 "+15V" H 2950 4340 50  0000 C CNN
F 2 "" H 2950 4200 50  0001 C CNN
F 3 "" H 2950 4200 50  0001 C CNN
	1    2950 4200
	1    0    0    -1  
$EndComp
$Comp
L +15V #PWR011
U 1 1 5B5C199C
P 4950 4300
F 0 "#PWR011" H 4950 4150 50  0001 C CNN
F 1 "+15V" H 4950 4440 50  0000 C CNN
F 2 "" H 4950 4300 50  0001 C CNN
F 3 "" H 4950 4300 50  0001 C CNN
	1    4950 4300
	1    0    0    -1  
$EndComp
$Comp
L +15V #PWR012
U 1 1 5B5C19E4
P 3525 6025
F 0 "#PWR012" H 3525 5875 50  0001 C CNN
F 1 "+15V" H 3525 6165 50  0000 C CNN
F 2 "" H 3525 6025 50  0001 C CNN
F 3 "" H 3525 6025 50  0001 C CNN
	1    3525 6025
	1    0    0    -1  
$EndComp
$Comp
L +15V #PWR013
U 1 1 5B5C1A2C
P 4075 5800
F 0 "#PWR013" H 4075 5650 50  0001 C CNN
F 1 "+15V" H 4075 5940 50  0000 C CNN
F 2 "" H 4075 5800 50  0001 C CNN
F 3 "" H 4075 5800 50  0001 C CNN
	1    4075 5800
	1    0    0    -1  
$EndComp
$Comp
L +15V #PWR014
U 1 1 5B5C1A74
P 5075 5650
F 0 "#PWR014" H 5075 5500 50  0001 C CNN
F 1 "+15V" H 5075 5790 50  0000 C CNN
F 2 "" H 5075 5650 50  0001 C CNN
F 3 "" H 5075 5650 50  0001 C CNN
	1    5075 5650
	1    0    0    -1  
$EndComp
$Comp
L +15V #PWR015
U 1 1 5B5C1ABC
P 5750 5650
F 0 "#PWR015" H 5750 5500 50  0001 C CNN
F 1 "+15V" H 5750 5790 50  0000 C CNN
F 2 "" H 5750 5650 50  0001 C CNN
F 3 "" H 5750 5650 50  0001 C CNN
	1    5750 5650
	1    0    0    -1  
$EndComp
Wire Wire Line
	5075 5650 5075 5675
Wire Wire Line
	5750 5650 5750 5675
Wire Wire Line
	4075 5800 4075 6125
Wire Wire Line
	4075 6125 4175 6125
Wire Wire Line
	3525 6025 3525 6125
Wire Wire Line
	3525 6125 3700 6125
Wire Wire Line
	4950 4300 4950 4375
Wire Wire Line
	2950 4200 2950 4275
Wire Wire Line
	2950 2475 2950 2575
Text GLabel 6875 3300 2    40   Input ~ 0
Iout
$Comp
L -15V #PWR8
U 1 1 5B5C330F
P 2950 3350
F 0 "#PWR8" H 2950 3450 50  0001 C CNN
F 1 "-15V" H 2950 3500 50  0000 C CNN
F 2 "" H 2950 3350 50  0001 C CNN
F 3 "" H 2950 3350 50  0001 C CNN
	1    2950 3350
	-1   0    0    1   
$EndComp
$Comp
L -15V #PWR19
U 1 1 5B5C3357
P 4950 3375
F 0 "#PWR19" H 4950 3475 50  0001 C CNN
F 1 "-15V" H 4950 3525 50  0000 C CNN
F 2 "" H 4950 3375 50  0001 C CNN
F 3 "" H 4950 3375 50  0001 C CNN
	1    4950 3375
	-1   0    0    1   
$EndComp
$Comp
L -15V #PWR25
U 1 1 5B5C339F
P 5600 2525
F 0 "#PWR25" H 5600 2625 50  0001 C CNN
F 1 "-15V" H 5600 2675 50  0000 C CNN
F 2 "" H 5600 2525 50  0001 C CNN
F 3 "" H 5600 2525 50  0001 C CNN
	1    5600 2525
	-1   0    0    1   
$EndComp
$Comp
L -15V #PWR31
U 1 1 5B5C33E7
P 6275 2525
F 0 "#PWR31" H 6275 2625 50  0001 C CNN
F 1 "-15V" H 6275 2675 50  0000 C CNN
F 2 "" H 6275 2525 50  0001 C CNN
F 3 "" H 6275 2525 50  0001 C CNN
	1    6275 2525
	-1   0    0    1   
$EndComp
$Comp
L -15V #PWR27
U 1 1 5B5C38A7
P 5700 4050
F 0 "#PWR27" H 5700 4150 50  0001 C CNN
F 1 "-15V" H 5700 4200 50  0000 C CNN
F 2 "" H 5700 4050 50  0001 C CNN
F 3 "" H 5700 4050 50  0001 C CNN
	1    5700 4050
	-1   0    0    1   
$EndComp
$Comp
L -15V #PWR33
U 1 1 5B5C38EF
P 6375 4050
F 0 "#PWR33" H 6375 4150 50  0001 C CNN
F 1 "-15V" H 6375 4200 50  0000 C CNN
F 2 "" H 6375 4050 50  0001 C CNN
F 3 "" H 6375 4050 50  0001 C CNN
	1    6375 4050
	-1   0    0    1   
$EndComp
$Comp
L -15V #PWR23
U 1 1 5B5C3937
P 5075 6050
F 0 "#PWR23" H 5075 6150 50  0001 C CNN
F 1 "-15V" H 5075 6200 50  0000 C CNN
F 2 "" H 5075 6050 50  0001 C CNN
F 3 "" H 5075 6050 50  0001 C CNN
	1    5075 6050
	-1   0    0    1   
$EndComp
$Comp
L -15V #PWR29
U 1 1 5B5C3999
P 5750 6050
F 0 "#PWR29" H 5750 6150 50  0001 C CNN
F 1 "-15V" H 5750 6200 50  0000 C CNN
F 2 "" H 5750 6050 50  0001 C CNN
F 3 "" H 5750 6050 50  0001 C CNN
	1    5750 6050
	-1   0    0    1   
$EndComp
$Comp
L -15V #PWR15
U 1 1 5B5C39E1
P 4125 6225
F 0 "#PWR15" H 4125 6325 50  0001 C CNN
F 1 "-15V" H 4125 6375 50  0000 C CNN
F 2 "" H 4125 6225 50  0001 C CNN
F 3 "" H 4125 6225 50  0001 C CNN
	1    4125 6225
	-1   0    0    1   
$EndComp
$Comp
L -15V #PWR17
U 1 1 5B5C3A29
P 4600 6225
F 0 "#PWR17" H 4600 6325 50  0001 C CNN
F 1 "-15V" H 4600 6375 50  0000 C CNN
F 2 "" H 4600 6225 50  0001 C CNN
F 3 "" H 4600 6225 50  0001 C CNN
	1    4600 6225
	-1   0    0    1   
$EndComp
$Comp
L -15V #PWR10
U 1 1 5B5C3A71
P 2950 5025
F 0 "#PWR10" H 2950 5125 50  0001 C CNN
F 1 "-15V" H 2950 5175 50  0000 C CNN
F 2 "" H 2950 5025 50  0001 C CNN
F 3 "" H 2950 5025 50  0001 C CNN
	1    2950 5025
	-1   0    0    1   
$EndComp
$Comp
L -15V #PWR21
U 1 1 5B5C3AB9
P 4950 5000
F 0 "#PWR21" H 4950 5100 50  0001 C CNN
F 1 "-15V" H 4950 5150 50  0000 C CNN
F 2 "" H 4950 5000 50  0001 C CNN
F 3 "" H 4950 5000 50  0001 C CNN
	1    4950 5000
	-1   0    0    1   
$EndComp
Wire Wire Line
	4950 3175 4950 3375
Wire Wire Line
	2950 3175 2950 3350
Wire Wire Line
	2950 4875 2950 5025
Wire Wire Line
	4950 2475 4950 2575
Wire Wire Line
	5600 2450 5600 2525
Wire Wire Line
	6275 2450 6275 2525
Wire Wire Line
	5700 3600 5700 3675
Wire Wire Line
	6375 3600 6375 3675
Wire Wire Line
	5700 3975 5700 4050
Wire Wire Line
	6375 3975 6375 4050
Wire Wire Line
	5600 2075 5600 2150
Wire Wire Line
	6275 2075 6275 2150
Wire Wire Line
	5075 5975 5075 6050
Wire Wire Line
	5750 5975 5750 6050
$Comp
L LM324 U2
U 3 1 5B68CF39
P 5050 2875
F 0 "U2" H 5050 3075 50  0000 L CNN
F 1 "OPA4192 (OPA4197)" H 5050 2675 50  0000 L CNN
F 2 "Housings_SOIC:SOIC-14_3.9x8.7mm_Pitch1.27mm" H 5000 2975 50  0001 C CNN
F 3 "" H 5100 3075 50  0001 C CNN
	3    5050 2875
	1    0    0    -1  
$EndComp
$Comp
L LM324 U2
U 2 1 5B68D95B
P 3050 4575
F 0 "U2" H 3050 4775 50  0000 L CNN
F 1 "OPA4192 (OPA4197)" H 3050 4375 50  0000 L CNN
F 2 "Housings_SOIC:SOIC-14_3.9x8.7mm_Pitch1.27mm" H 3000 4675 50  0001 C CNN
F 3 "" H 3100 4775 50  0001 C CNN
	2    3050 4575
	1    0    0    -1  
$EndComp
$Comp
L LM324 U2
U 4 1 5B68D9DE
P 5050 4675
F 0 "U2" H 5050 4875 50  0000 L CNN
F 1 "OPA4192 (OPA4197)" H 5050 4475 50  0000 L CNN
F 2 "Housings_SOIC:SOIC-14_3.9x8.7mm_Pitch1.27mm" H 5000 4775 50  0001 C CNN
F 3 "" H 5100 4875 50  0001 C CNN
	4    5050 4675
	1    0    0    -1  
$EndComp
Wire Wire Line
	4950 4975 4950 5000
$Comp
L CONN_01X04 J1
U 1 1 5B6CD06A
P 1525 1275
F 0 "J1" H 1525 1575 50  0000 C CNN
F 1 "POWER" V 1625 1275 50  0000 C CNN
F 2 "suf_connector_ncw:CONN_NCW254-04S" H 1525 1275 50  0001 C CNN
F 3 "" H 1525 1275 50  0001 C CNN
	1    1525 1275
	1    0    0    -1  
$EndComp
$Comp
L CONN_01X03 J2
U 1 1 5B6CD0DB
P 2275 1125
F 0 "J2" H 2275 1325 50  0000 C CNN
F 1 "IN" V 2375 1125 50  0000 C CNN
F 2 "suf_connector_ncw:CONN_NCW254-03S" H 2275 1125 50  0001 C CNN
F 3 "" H 2275 1125 50  0001 C CNN
	1    2275 1125
	1    0    0    -1  
$EndComp
$Comp
L CONN_01X05 J3
U 1 1 5B6CE46C
P 3025 1150
F 0 "J3" H 3025 1450 50  0000 C CNN
F 1 "MCU" V 3125 1150 50  0000 C CNN
F 2 "suf_connector_ncw:CONN_NCW254-05S" H 3025 1150 50  0001 C CNN
F 3 "" H 3025 1150 50  0001 C CNN
	1    3025 1150
	1    0    0    -1  
$EndComp
$Comp
L CONN_01X03 J4
U 1 1 5B6CE4EB
P 3675 1075
F 0 "J4" H 3675 1275 50  0000 C CNN
F 1 "A_OUT" V 3775 1075 50  0000 C CNN
F 2 "suf_connector_ncw:CONN_NCW254-03S" H 3675 1075 50  0001 C CNN
F 3 "" H 3675 1075 50  0001 C CNN
	1    3675 1075
	1    0    0    -1  
$EndComp
$Comp
L MCP23008 U4
U 1 1 5B6CEBB4
P 9225 3450
F 0 "U4" H 9125 4075 50  0000 R CNN
F 1 "MCP23008" H 9125 4000 50  0000 R CNN
F 2 "Housings_SOIC:SOIC-18W_7.5x11.6mm_Pitch1.27mm" H 9275 2800 50  0001 L CNN
F 3 "" H 9475 4050 50  0001 C CNN
	1    9225 3450
	1    0    0    -1  
$EndComp
Text GLabel 7650 3150 0    40   Input ~ 0
BIT0
Text GLabel 7650 3250 0    40   Input ~ 0
BIT1
Text GLabel 7650 3350 0    40   Input ~ 0
BIT2
Text GLabel 7650 3450 0    40   Input ~ 0
BIT3
Text GLabel 7650 3550 0    40   Input ~ 0
BIT4
Text GLabel 7650 3650 0    40   Input ~ 0
BIT5
Text GLabel 7650 3750 0    40   Input ~ 0
BIT6
Text GLabel 7650 3850 0    40   Input ~ 0
BIT7
Wire Wire Line
	7650 3150 8725 3150
Wire Wire Line
	7650 3250 8725 3250
Wire Wire Line
	7650 3350 8725 3350
Wire Wire Line
	7650 3450 8725 3450
Wire Wire Line
	7650 3550 8725 3550
Wire Wire Line
	7650 3650 8725 3650
Wire Wire Line
	7650 3750 8725 3750
Wire Wire Line
	7650 3850 8725 3850
$Comp
L -15V #PWR4
U 1 1 5B6D01F8
P 1225 1550
F 0 "#PWR4" H 1225 1650 50  0001 C CNN
F 1 "-15V" H 1225 1700 50  0000 C CNN
F 2 "" H 1225 1550 50  0001 C CNN
F 3 "" H 1225 1550 50  0001 C CNN
	1    1225 1550
	-1   0    0    1   
$EndComp
$Comp
L +15V #PWR016
U 1 1 5B6D027F
P 1225 1025
F 0 "#PWR016" H 1225 875 50  0001 C CNN
F 1 "+15V" H 1225 1165 50  0000 C CNN
F 2 "" H 1225 1025 50  0001 C CNN
F 3 "" H 1225 1025 50  0001 C CNN
	1    1225 1025
	1    0    0    -1  
$EndComp
$Comp
L GND #PWR017
U 1 1 5B6D034E
P 1025 1550
F 0 "#PWR017" H 1025 1300 50  0001 C CNN
F 1 "GND" H 1025 1400 50  0000 C CNN
F 2 "" H 1025 1550 50  0001 C CNN
F 3 "" H 1025 1550 50  0001 C CNN
	1    1025 1550
	1    0    0    -1  
$EndComp
Wire Wire Line
	1225 1550 1225 1425
Wire Wire Line
	1225 1425 1325 1425
Wire Wire Line
	1325 1325 1025 1325
Wire Wire Line
	1025 1325 1025 1550
Wire Wire Line
	1325 1125 1225 1125
Wire Wire Line
	1225 1125 1225 1025
Wire Wire Line
	1325 1225 975  1225
Wire Wire Line
	975  1225 975  1025
Text GLabel 1975 1025 0    40   Input ~ 0
Isense
Text GLabel 1975 1125 0    40   Input ~ 0
Vsense
$Comp
L GND #PWR018
U 1 1 5B6D2D68
P 1975 1300
F 0 "#PWR018" H 1975 1050 50  0001 C CNN
F 1 "GND" H 1975 1150 50  0000 C CNN
F 2 "" H 1975 1300 50  0001 C CNN
F 3 "" H 1975 1300 50  0001 C CNN
	1    1975 1300
	1    0    0    -1  
$EndComp
Wire Wire Line
	2075 1025 1975 1025
Wire Wire Line
	1975 1125 2075 1125
Wire Wire Line
	2075 1225 1975 1225
Wire Wire Line
	1975 1225 1975 1300
$Comp
L GND #PWR019
U 1 1 5B6D2FAA
P 2750 1450
F 0 "#PWR019" H 2750 1200 50  0001 C CNN
F 1 "GND" H 2750 1300 50  0000 C CNN
F 2 "" H 2750 1450 50  0001 C CNN
F 3 "" H 2750 1450 50  0001 C CNN
	1    2750 1450
	1    0    0    -1  
$EndComp
Text GLabel 2700 1150 0    40   Input ~ 0
SDA
Text GLabel 2700 1250 0    40   Input ~ 0
SCL
Text GLabel 9850 3450 2    40   Input ~ 0
SCL
Text GLabel 9850 3550 2    40   Input ~ 0
SDA
Wire Wire Line
	9850 3450 9725 3450
Wire Wire Line
	9850 3550 9725 3550
Wire Wire Line
	2825 1150 2700 1150
Wire Wire Line
	2825 1250 2700 1250
Wire Wire Line
	2750 1450 2750 1350
Wire Wire Line
	2750 1350 2825 1350
Text GLabel 3350 1075 0    40   Input ~ 0
Vout
Text GLabel 2700 950  0    40   Input ~ 0
Iout
Wire Wire Line
	2825 950  2700 950 
Wire Wire Line
	2825 1050 2700 1050
Text GLabel 3350 975  0    40   Input ~ 0
Iout
Text GLabel 2700 1050 0    40   Input ~ 0
Vout
Wire Wire Line
	3475 975  3350 975 
Wire Wire Line
	3475 1075 3350 1075
$Comp
L GND #PWR020
U 1 1 5B6D63F7
P 3375 1275
F 0 "#PWR020" H 3375 1025 50  0001 C CNN
F 1 "GND" H 3375 1125 50  0000 C CNN
F 2 "" H 3375 1275 50  0001 C CNN
F 3 "" H 3375 1275 50  0001 C CNN
	1    3375 1275
	1    0    0    -1  
$EndComp
Wire Wire Line
	3475 1175 3375 1175
Wire Wire Line
	3375 1175 3375 1275
$Comp
L GND #PWR021
U 1 1 5B6D8350
P 9225 4250
F 0 "#PWR021" H 9225 4000 50  0001 C CNN
F 1 "GND" H 9225 4100 50  0000 C CNN
F 2 "" H 9225 4250 50  0001 C CNN
F 3 "" H 9225 4250 50  0001 C CNN
	1    9225 4250
	1    0    0    -1  
$EndComp
Wire Wire Line
	9225 2750 9225 2850
Wire Wire Line
	9225 4150 9225 4250
$Comp
L LED_Small D8
U 1 1 5B6D861A
P 8675 4100
F 0 "D8" H 8725 4050 50  0000 L CNN
F 1 "LED" H 8500 4050 50  0000 L CNN
F 2 "LEDs:LED_0603_HandSoldering" V 8675 4100 50  0001 C CNN
F 3 "" V 8675 4100 50  0001 C CNN
	1    8675 4100
	0    -1   -1   0   
$EndComp
$Comp
L R R22
U 1 1 5B6D891B
P 8675 4400
F 0 "R22" V 8725 4200 50  0000 C CNN
F 1 "610" V 8675 4400 50  0000 C CNN
F 2 "Resistors_SMD:R_0603_HandSoldering" V 8605 4400 50  0001 C CNN
F 3 "" H 8675 4400 50  0001 C CNN
	1    8675 4400
	1    0    0    -1  
$EndComp
Wire Wire Line
	8675 4200 8675 4250
Wire Wire Line
	8675 4550 8675 4775
$Comp
L LED_Small D7
U 1 1 5B6D8DB1
P 8550 4100
F 0 "D7" H 8600 4050 50  0000 L CNN
F 1 "LED" H 8375 4050 50  0000 L CNN
F 2 "LEDs:LED_0603_HandSoldering" V 8550 4100 50  0001 C CNN
F 3 "" V 8550 4100 50  0001 C CNN
	1    8550 4100
	0    -1   -1   0   
$EndComp
$Comp
L R R21
U 1 1 5B6D8DB7
P 8550 4400
F 0 "R21" V 8600 4200 50  0000 C CNN
F 1 "610" V 8550 4400 50  0000 C CNN
F 2 "Resistors_SMD:R_0603_HandSoldering" V 8480 4400 50  0001 C CNN
F 3 "" H 8550 4400 50  0001 C CNN
	1    8550 4400
	1    0    0    -1  
$EndComp
Wire Wire Line
	8550 4200 8550 4250
Wire Wire Line
	8550 4675 8550 4550
$Comp
L LED_Small D6
U 1 1 5B6D8E61
P 8425 4100
F 0 "D6" H 8475 4050 50  0000 L CNN
F 1 "LED" H 8250 4050 50  0000 L CNN
F 2 "LEDs:LED_0603_HandSoldering" V 8425 4100 50  0001 C CNN
F 3 "" V 8425 4100 50  0001 C CNN
	1    8425 4100
	0    -1   -1   0   
$EndComp
$Comp
L R R20
U 1 1 5B6D8E67
P 8425 4400
F 0 "R20" V 8475 4200 50  0000 C CNN
F 1 "610" V 8425 4400 50  0000 C CNN
F 2 "Resistors_SMD:R_0603_HandSoldering" V 8355 4400 50  0001 C CNN
F 3 "" H 8425 4400 50  0001 C CNN
	1    8425 4400
	1    0    0    -1  
$EndComp
Wire Wire Line
	8425 4200 8425 4250
Wire Wire Line
	8425 4675 8425 4550
$Comp
L LED_Small D5
U 1 1 5B6D8E6F
P 8300 4100
F 0 "D5" H 8350 4050 50  0000 L CNN
F 1 "LED" H 8125 4050 50  0000 L CNN
F 2 "LEDs:LED_0603_HandSoldering" V 8300 4100 50  0001 C CNN
F 3 "" V 8300 4100 50  0001 C CNN
	1    8300 4100
	0    -1   -1   0   
$EndComp
$Comp
L R R19
U 1 1 5B6D8E75
P 8300 4400
F 0 "R19" V 8350 4200 50  0000 C CNN
F 1 "610" V 8300 4400 50  0000 C CNN
F 2 "Resistors_SMD:R_0603_HandSoldering" V 8230 4400 50  0001 C CNN
F 3 "" H 8300 4400 50  0001 C CNN
	1    8300 4400
	1    0    0    -1  
$EndComp
Wire Wire Line
	8300 4200 8300 4250
Wire Wire Line
	8300 4675 8300 4550
$Comp
L LED_Small D4
U 1 1 5B6D8F63
P 8175 4100
F 0 "D4" H 8225 4050 50  0000 L CNN
F 1 "LED" H 8000 4050 50  0000 L CNN
F 2 "LEDs:LED_0603_HandSoldering" V 8175 4100 50  0001 C CNN
F 3 "" V 8175 4100 50  0001 C CNN
	1    8175 4100
	0    -1   -1   0   
$EndComp
$Comp
L R R18
U 1 1 5B6D8F69
P 8175 4400
F 0 "R18" V 8225 4200 50  0000 C CNN
F 1 "610" V 8175 4400 50  0000 C CNN
F 2 "Resistors_SMD:R_0603_HandSoldering" V 8105 4400 50  0001 C CNN
F 3 "" H 8175 4400 50  0001 C CNN
	1    8175 4400
	1    0    0    -1  
$EndComp
Wire Wire Line
	8175 4200 8175 4250
Wire Wire Line
	8175 4675 8175 4550
$Comp
L LED_Small D3
U 1 1 5B6D8F71
P 8050 4100
F 0 "D3" H 8100 4050 50  0000 L CNN
F 1 "LED" H 7875 4050 50  0000 L CNN
F 2 "LEDs:LED_0603_HandSoldering" V 8050 4100 50  0001 C CNN
F 3 "" V 8050 4100 50  0001 C CNN
	1    8050 4100
	0    -1   -1   0   
$EndComp
$Comp
L R R17
U 1 1 5B6D8F77
P 8050 4400
F 0 "R17" V 8100 4200 50  0000 C CNN
F 1 "610" V 8050 4400 50  0000 C CNN
F 2 "Resistors_SMD:R_0603_HandSoldering" V 7980 4400 50  0001 C CNN
F 3 "" H 8050 4400 50  0001 C CNN
	1    8050 4400
	1    0    0    -1  
$EndComp
Wire Wire Line
	8050 4200 8050 4250
Wire Wire Line
	8050 4675 8050 4550
$Comp
L LED_Small D2
U 1 1 5B6D8F7F
P 7925 4100
F 0 "D2" H 7975 4050 50  0000 L CNN
F 1 "LED" H 7750 4050 50  0000 L CNN
F 2 "LEDs:LED_0603_HandSoldering" V 7925 4100 50  0001 C CNN
F 3 "" V 7925 4100 50  0001 C CNN
	1    7925 4100
	0    -1   -1   0   
$EndComp
$Comp
L R R16
U 1 1 5B6D8F85
P 7925 4400
F 0 "R16" V 7975 4200 50  0000 C CNN
F 1 "610" V 7925 4400 50  0000 C CNN
F 2 "Resistors_SMD:R_0603_HandSoldering" V 7855 4400 50  0001 C CNN
F 3 "" H 7925 4400 50  0001 C CNN
	1    7925 4400
	1    0    0    -1  
$EndComp
Wire Wire Line
	7925 4200 7925 4250
Wire Wire Line
	7925 4550 7925 4675
$Comp
L LED_Small D1
U 1 1 5B6D8F8D
P 7800 4100
F 0 "D1" H 7850 4050 50  0000 L CNN
F 1 "LED" H 7625 4050 50  0000 L CNN
F 2 "LEDs:LED_0603_HandSoldering" V 7800 4100 50  0001 C CNN
F 3 "" V 7800 4100 50  0001 C CNN
	1    7800 4100
	0    -1   -1   0   
$EndComp
$Comp
L R R15
U 1 1 5B6D8F93
P 7800 4400
F 0 "R15" V 7850 4200 50  0000 C CNN
F 1 "610" V 7800 4400 50  0000 C CNN
F 2 "Resistors_SMD:R_0603_HandSoldering" V 7730 4400 50  0001 C CNN
F 3 "" H 7800 4400 50  0001 C CNN
	1    7800 4400
	1    0    0    -1  
$EndComp
Wire Wire Line
	7800 4200 7800 4250
Wire Wire Line
	7800 4550 7800 4675
Wire Wire Line
	7800 4675 8675 4675
Connection ~ 7925 4675
Connection ~ 8050 4675
Connection ~ 8175 4675
Connection ~ 8300 4675
Connection ~ 8425 4675
Connection ~ 8550 4675
$Comp
L GND #PWR022
U 1 1 5B6D9630
P 8675 4775
F 0 "#PWR022" H 8675 4525 50  0001 C CNN
F 1 "GND" H 8675 4625 50  0000 C CNN
F 2 "" H 8675 4775 50  0001 C CNN
F 3 "" H 8675 4775 50  0001 C CNN
	1    8675 4775
	1    0    0    -1  
$EndComp
Connection ~ 8675 4675
Wire Wire Line
	7800 4000 7800 3150
Connection ~ 7800 3150
Wire Wire Line
	7925 4000 7925 3250
Connection ~ 7925 3250
Wire Wire Line
	8050 4000 8050 3350
Connection ~ 8050 3350
Wire Wire Line
	8175 4000 8175 3450
Connection ~ 8175 3450
Wire Wire Line
	8300 4000 8300 3550
Connection ~ 8300 3550
Wire Wire Line
	8425 4000 8425 3650
Connection ~ 8425 3650
Wire Wire Line
	8550 4000 8550 3750
Connection ~ 8550 3750
Wire Wire Line
	8675 4000 8675 3850
Connection ~ 8675 3850
Wire Wire Line
	9725 3050 9725 2775
Wire Wire Line
	9725 2775 9225 2775
Connection ~ 9225 2775
$Comp
L R R25
U 1 1 5B6DA07D
P 10075 4225
F 0 "R25" V 10125 4025 50  0000 C CNN
F 1 "10K" V 10075 4225 50  0000 C CNN
F 2 "Resistors_SMD:R_0603_HandSoldering" V 10005 4225 50  0001 C CNN
F 3 "" H 10075 4225 50  0001 C CNN
	1    10075 4225
	1    0    0    -1  
$EndComp
Wire Wire Line
	10075 3950 10075 4075
Wire Wire Line
	10075 4375 10075 4600
$Comp
L R R24
U 1 1 5B6DA085
P 9950 4225
F 0 "R24" V 10000 4025 50  0000 C CNN
F 1 "10K" V 9950 4225 50  0000 C CNN
F 2 "Resistors_SMD:R_0603_HandSoldering" V 9880 4225 50  0001 C CNN
F 3 "" H 9950 4225 50  0001 C CNN
	1    9950 4225
	1    0    0    -1  
$EndComp
Wire Wire Line
	9950 3850 9950 4075
Wire Wire Line
	9950 4500 9950 4375
$Comp
L R R23
U 1 1 5B6DA08D
P 9825 4225
F 0 "R23" V 9875 4025 50  0000 C CNN
F 1 "10K" V 9825 4225 50  0000 C CNN
F 2 "Resistors_SMD:R_0603_HandSoldering" V 9755 4225 50  0001 C CNN
F 3 "" H 9825 4225 50  0001 C CNN
	1    9825 4225
	1    0    0    -1  
$EndComp
Wire Wire Line
	9825 3750 9825 4075
Wire Wire Line
	9825 4500 9825 4375
Wire Wire Line
	9825 4500 10075 4500
Connection ~ 9950 4500
$Comp
L GND #PWR023
U 1 1 5B6DA098
P 10075 4600
F 0 "#PWR023" H 10075 4350 50  0001 C CNN
F 1 "GND" H 10075 4450 50  0000 C CNN
F 2 "" H 10075 4600 50  0001 C CNN
F 3 "" H 10075 4600 50  0001 C CNN
	1    10075 4600
	1    0    0    -1  
$EndComp
Connection ~ 10075 4500
$Comp
L Jumper_NC_Small JP1
U 1 1 5B6DA3D4
P 10375 3750
F 0 "JP1" H 10225 3800 50  0000 C CNN
F 1 "A0" H 10500 3800 50  0000 C CNN
F 2 "Pin_Headers:Pin_Header_Straight_1x02_Pitch2.54mm" H 10375 3750 50  0001 C CNN
F 3 "" H 10375 3750 50  0001 C CNN
	1    10375 3750
	1    0    0    -1  
$EndComp
$Comp
L Jumper_NC_Small JP2
U 1 1 5B6DA6DA
P 10375 3850
F 0 "JP2" H 10225 3900 50  0000 C CNN
F 1 "A1" H 10500 3900 50  0000 C CNN
F 2 "Pin_Headers:Pin_Header_Straight_1x02_Pitch2.54mm" H 10375 3850 50  0001 C CNN
F 3 "" H 10375 3850 50  0001 C CNN
	1    10375 3850
	1    0    0    -1  
$EndComp
$Comp
L Jumper_NC_Small JP3
U 1 1 5B6DA78E
P 10375 3950
F 0 "JP3" H 10225 4000 50  0000 C CNN
F 1 "A2" H 10500 4000 50  0000 C CNN
F 2 "Pin_Headers:Pin_Header_Straight_1x02_Pitch2.54mm" H 10375 3950 50  0001 C CNN
F 3 "" H 10375 3950 50  0001 C CNN
	1    10375 3950
	1    0    0    -1  
$EndComp
Wire Wire Line
	9725 3750 10275 3750
Wire Wire Line
	9725 3850 10275 3850
Wire Wire Line
	10275 3950 9725 3950
Connection ~ 9825 3750
Connection ~ 9950 3850
Connection ~ 10075 3950
Wire Wire Line
	10475 3750 10650 3750
Wire Wire Line
	10650 3675 10650 3950
Wire Wire Line
	10650 3850 10475 3850
Connection ~ 10650 3750
Wire Wire Line
	10650 3950 10475 3950
Connection ~ 10650 3850
$Comp
L +5V #PWR024
U 1 1 5B6E2D22
P 975 1025
F 0 "#PWR024" H 975 875 50  0001 C CNN
F 1 "+5V" H 975 1165 50  0000 C CNN
F 2 "" H 975 1025 50  0001 C CNN
F 3 "" H 975 1025 50  0001 C CNN
	1    975  1025
	1    0    0    -1  
$EndComp
$Comp
L +5V #PWR025
U 1 1 5B6E59EF
P 9225 2750
F 0 "#PWR025" H 9225 2600 50  0001 C CNN
F 1 "+5V" H 9225 2890 50  0000 C CNN
F 2 "" H 9225 2750 50  0001 C CNN
F 3 "" H 9225 2750 50  0001 C CNN
	1    9225 2750
	1    0    0    -1  
$EndComp
$Comp
L +5V #PWR026
U 1 1 5B6E5AD8
P 10650 3675
F 0 "#PWR026" H 10650 3525 50  0001 C CNN
F 1 "+5V" H 10650 3815 50  0000 C CNN
F 2 "" H 10650 3675 50  0001 C CNN
F 3 "" H 10650 3675 50  0001 C CNN
	1    10650 3675
	1    0    0    -1  
$EndComp
Text Label 9425 2775 0    40   ~ 0
VL
$EndSCHEMATC
