EESchema Schematic File Version 2
LIBS:power
LIBS:device
LIBS:transistors
LIBS:conn
LIBS:linear
LIBS:regul
LIBS:74xx
LIBS:cmos4000
LIBS:adc-dac
LIBS:memory
LIBS:xilinx
LIBS:microcontrollers
LIBS:dsp
LIBS:microchip
LIBS:analog_switches
LIBS:motorola
LIBS:texas
LIBS:intel
LIBS:audio
LIBS:interface
LIBS:digital-audio
LIBS:philips
LIBS:display
LIBS:cypress
LIBS:siliconi
LIBS:opto
LIBS:atmel
LIBS:contrib
LIBS:valves
LIBS:suf_regulator
LIBS:suf_power
LIBS:PSU-cache
EELAYER 25 0
EELAYER END
$Descr A4 11693 8268
encoding utf-8
Sheet 1 1
Title "Curve Tracer / Power Supply"
Date "2018-08-09"
Rev "0003"
Comp ""
Comment1 ""
Comment2 ""
Comment3 ""
Comment4 ""
$EndDescr
$Comp
L CONN_01X04 J1
U 1 1 5B53F1C3
P 1300 2575
F 0 "J1" H 1300 2825 50  0000 C CNN
F 1 "AC_IN" V 1400 2575 50  0000 C CNN
F 2 "suf_connector_ncw:CONN_NCW396-04S" H 1300 2575 50  0001 C CNN
F 3 "" H 1300 2575 50  0001 C CNN
	1    1300 2575
	-1   0    0    -1  
$EndComp
$Comp
L D_Bridge_-A+A D1
U 1 1 5B53F224
P 1975 2075
F 0 "D1" V 2175 1850 50  0000 L CNN
F 1 "4A/50V (KBL408)" V 2175 2200 50  0000 L CNN
F 2 "Diodes_ThroughHole:Diode_Bridge_18.5x5.5" H 1975 2075 50  0001 C CNN
F 3 "" H 1975 2075 50  0001 C CNN
	1    1975 2075
	0    -1   -1   0   
$EndComp
$Comp
L CP C1
U 1 1 5B53F2C6
P 2650 2125
F 0 "C1" H 2675 2225 50  0000 L CNN
F 1 "4700uF/25V" H 2425 2000 50  0000 L CNN
F 2 "Capacitors_ThroughHole:CP_Radial_D16.0mm_P7.50mm" H 2688 1975 50  0001 C CNN
F 3 "" H 2650 2125 50  0001 C CNN
	1    2650 2125
	1    0    0    -1  
$EndComp
$Comp
L LM1085IS-ADJ U3
U 1 1 5B540230
P 3100 1800
F 0 "U3" H 3200 1650 60  0000 C CNN
F 1 "LM1085IS-ADJ" H 3100 2050 60  0000 C CNN
F 2 "TO_SOT_Packages_SMD:TO-263-3_TabPin2" H 3100 1800 60  0001 C CNN
F 3 "" H 3100 1800 60  0001 C CNN
	1    3100 1800
	1    0    0    -1  
$EndComp
$Comp
L R R3
U 1 1 5B542045
P 3550 1950
F 0 "R3" V 3630 1950 50  0000 C CNN
F 1 "200" V 3550 1950 50  0000 C CNN
F 2 "Resistors_SMD:R_1206_HandSoldering" V 3480 1950 50  0001 C CNN
F 3 "" H 3550 1950 50  0001 C CNN
	1    3550 1950
	1    0    0    -1  
$EndComp
$Comp
L R R1
U 1 1 5B5420AE
P 3100 2325
F 0 "R1" V 3180 2325 50  0000 C CNN
F 1 "2K2" V 3100 2325 50  0000 C CNN
F 2 "Resistors_SMD:R_1206_HandSoldering" V 3030 2325 50  0001 C CNN
F 3 "" H 3100 2325 50  0001 C CNN
	1    3100 2325
	1    0    0    -1  
$EndComp
$Comp
L C C3
U 1 1 5B542105
P 3550 2325
F 0 "C3" H 3575 2425 50  0000 L CNN
F 1 "4.7uF/25V" H 3475 2100 50  0000 L CNN
F 2 "Capacitors_SMD:C_0805_HandSoldering" H 3588 2175 50  0001 C CNN
F 3 "" H 3550 2325 50  0001 C CNN
	1    3550 2325
	1    0    0    -1  
$EndComp
$Comp
L CP C7
U 1 1 5B54215C
P 3975 2125
F 0 "C7" H 4000 2225 50  0000 L CNN
F 1 "220uF/25V" H 4000 2025 50  0000 L CNN
F 2 "Capacitors_SMD:CP_Elec_8x10" H 4013 1975 50  0001 C CNN
F 3 "" H 3975 2125 50  0001 C CNN
	1    3975 2125
	1    0    0    -1  
$EndComp
Wire Wire Line
	1975 2375 1975 2475
Wire Wire Line
	1975 2475 3975 2475
Connection ~ 3100 2475
Wire Wire Line
	3975 2275 3975 2950
Connection ~ 3550 2475
Wire Wire Line
	1975 1775 1975 1700
Wire Wire Line
	1075 1700 2700 1700
Wire Wire Line
	2650 1975 2650 1700
Connection ~ 2650 1700
Wire Wire Line
	2650 2275 2650 2475
Connection ~ 2650 2475
Wire Wire Line
	3100 2100 3100 2175
Wire Wire Line
	3550 2100 3550 2175
Wire Wire Line
	3500 1700 3975 1700
Wire Wire Line
	3975 1650 3975 1975
Wire Wire Line
	3550 1800 3550 1700
Connection ~ 3550 1700
Wire Wire Line
	3100 2150 3550 2150
Connection ~ 3550 2150
Connection ~ 3100 2150
$Comp
L GND #PWR7
U 1 1 5B542682
P 4100 2600
F 0 "#PWR7" H 4100 2350 50  0001 C CNN
F 1 "GND" H 4100 2450 50  0000 C CNN
F 2 "" H 4100 2600 50  0001 C CNN
F 3 "" H 4100 2600 50  0001 C CNN
	1    4100 2600
	1    0    0    -1  
$EndComp
Connection ~ 3975 2475
$Comp
L +15V #PWR5
U 1 1 5B5426C9
P 3975 1650
F 0 "#PWR5" H 3975 1500 50  0001 C CNN
F 1 "+15V" H 3975 1790 50  0000 C CNN
F 2 "" H 3975 1650 50  0001 C CNN
F 3 "" H 3975 1650 50  0001 C CNN
	1    3975 1650
	1    0    0    -1  
$EndComp
Connection ~ 3975 1700
$Comp
L D_Bridge_-A+A D2
U 1 1 5B5434D5
P 1975 3050
F 0 "D2" V 1825 2775 50  0000 L CNN
F 1 "4A/50V (KBL408)" V 1825 3200 50  0000 L CNN
F 2 "Diodes_ThroughHole:Diode_Bridge_18.5x5.5" H 1975 3050 50  0001 C CNN
F 3 "" H 1975 3050 50  0001 C CNN
	1    1975 3050
	0    -1   -1   0   
$EndComp
$Comp
L CP C2
U 1 1 5B5434DB
P 2650 3100
F 0 "C2" H 2675 3200 50  0000 L CNN
F 1 "4700uF/25V" H 2425 2975 50  0000 L CNN
F 2 "Capacitors_ThroughHole:CP_Radial_D16.0mm_P7.50mm" H 2688 2950 50  0001 C CNN
F 3 "" H 2650 3100 50  0001 C CNN
	1    2650 3100
	1    0    0    -1  
$EndComp
$Comp
L LM1085IS-ADJ U4
U 1 1 5B5434E1
P 3100 2775
F 0 "U4" H 3200 2625 60  0000 C CNN
F 1 "LM1085IS-ADJ" H 3100 3025 60  0000 C CNN
F 2 "TO_SOT_Packages_SMD:TO-263-3_TabPin2" H 3100 2775 60  0001 C CNN
F 3 "" H 3100 2775 60  0001 C CNN
	1    3100 2775
	1    0    0    -1  
$EndComp
$Comp
L R R4
U 1 1 5B5434E7
P 3550 2925
F 0 "R4" V 3630 2925 50  0000 C CNN
F 1 "200" V 3550 2925 50  0000 C CNN
F 2 "Resistors_SMD:R_1206_HandSoldering" V 3480 2925 50  0001 C CNN
F 3 "" H 3550 2925 50  0001 C CNN
	1    3550 2925
	1    0    0    -1  
$EndComp
$Comp
L R R2
U 1 1 5B5434ED
P 3100 3300
F 0 "R2" V 3180 3300 50  0000 C CNN
F 1 "2K2" V 3100 3300 50  0000 C CNN
F 2 "Resistors_SMD:R_1206_HandSoldering" V 3030 3300 50  0001 C CNN
F 3 "" H 3100 3300 50  0001 C CNN
	1    3100 3300
	1    0    0    -1  
$EndComp
$Comp
L C C4
U 1 1 5B5434F3
P 3550 3300
F 0 "C4" H 3575 3400 50  0000 L CNN
F 1 "4.7uF/25V" H 3250 3075 50  0000 L CNN
F 2 "Capacitors_SMD:C_0805_HandSoldering" H 3588 3150 50  0001 C CNN
F 3 "" H 3550 3300 50  0001 C CNN
	1    3550 3300
	1    0    0    -1  
$EndComp
$Comp
L CP C8
U 1 1 5B5434F9
P 3975 3100
F 0 "C8" H 4000 3200 50  0000 L CNN
F 1 "220uF/25V" H 4000 3000 50  0000 L CNN
F 2 "Capacitors_SMD:CP_Elec_8x10" H 4013 2950 50  0001 C CNN
F 3 "" H 3975 3100 50  0001 C CNN
	1    3975 3100
	1    0    0    -1  
$EndComp
Wire Wire Line
	1975 3350 1975 3450
Wire Wire Line
	1975 3450 3975 3450
Connection ~ 3100 3450
Wire Wire Line
	3975 3250 3975 3500
Connection ~ 3550 3450
Wire Wire Line
	1975 2750 1975 2675
Wire Wire Line
	1975 2675 2700 2675
Wire Wire Line
	2650 2950 2650 2675
Connection ~ 2650 2675
Wire Wire Line
	2650 3250 2650 3450
Connection ~ 2650 3450
Wire Wire Line
	3100 3075 3100 3150
Wire Wire Line
	3550 3075 3550 3150
Wire Wire Line
	3500 2675 3975 2675
Wire Wire Line
	3550 2775 3550 2675
Connection ~ 3550 2675
Wire Wire Line
	3100 3125 3550 3125
Connection ~ 3550 3125
Connection ~ 3100 3125
Connection ~ 3975 3450
Connection ~ 3975 2675
Wire Wire Line
	4100 2600 4100 2575
Wire Wire Line
	4100 2575 3975 2575
Connection ~ 3975 2575
Wire Wire Line
	1500 2425 1675 2425
Wire Wire Line
	1675 2425 1675 2075
Wire Wire Line
	1500 2525 2275 2525
Wire Wire Line
	2275 2525 2275 2075
Wire Wire Line
	1500 2625 2275 2625
Wire Wire Line
	2275 2625 2275 3050
Wire Wire Line
	1500 2725 1675 2725
Wire Wire Line
	1675 2725 1675 3050
$Comp
L -15V #PWR6
U 1 1 5B543C77
P 3975 3500
F 0 "#PWR6" H 3975 3600 50  0001 C CNN
F 1 "-15V" H 3975 3650 50  0000 C CNN
F 2 "" H 3975 3500 50  0001 C CNN
F 3 "" H 3975 3500 50  0001 C CNN
	1    3975 3500
	-1   0    0    1   
$EndComp
$Comp
L LM2596 U1
U 1 1 5B5443CB
P 2700 3925
F 0 "U1" H 2950 3725 60  0000 C CNN
F 1 "LM2596S-33" H 2600 4125 60  0000 C CNN
F 2 "TO_SOT_Packages_SMD:TO-263-5_TabPin3" H 2700 3925 60  0001 C CNN
F 3 "" H 2700 3925 60  0000 C CNN
	1    2700 3925
	1    0    0    -1  
$EndComp
$Comp
L D_Schottky D3
U 1 1 5B544CF2
P 3350 4125
F 0 "D3" H 3225 4175 50  0000 C CNN
F 1 "SS54" H 3450 4225 50  0000 C CNN
F 2 "Diodes_SMD:D_SMC_Handsoldering" H 3350 4125 50  0001 C CNN
F 3 "" H 3350 4125 50  0001 C CNN
	1    3350 4125
	0    1    1    0   
$EndComp
$Comp
L L L1
U 1 1 5B544D79
P 3575 3875
F 0 "L1" V 3525 3875 50  0000 C CNN
F 1 "47uH" V 3650 3875 50  0000 C CNN
F 2 "Choke_SMD:Choke_SMD_12x12mm_h8mm" H 3575 3875 50  0001 C CNN
F 3 "" H 3575 3875 50  0001 C CNN
	1    3575 3875
	0    -1   -1   0   
$EndComp
$Comp
L CP C5
U 1 1 5B544E22
P 3800 4125
F 0 "C5" H 3825 4225 50  0000 L CNN
F 1 "220uF/10V" H 3825 4025 50  0000 L CNN
F 2 "Capacitors_SMD:CP_Elec_6.3x7.7" H 3838 3975 50  0001 C CNN
F 3 "" H 3800 4125 50  0001 C CNN
	1    3800 4125
	1    0    0    -1  
$EndComp
Wire Wire Line
	3200 3875 3425 3875
Wire Wire Line
	3350 3975 3350 3875
Connection ~ 3350 3875
Wire Wire Line
	3800 3875 3725 3875
Wire Wire Line
	3800 3700 3800 3975
Wire Wire Line
	2600 4275 2600 4350
Wire Wire Line
	2600 4350 3800 4350
Wire Wire Line
	3800 4275 3800 4400
Wire Wire Line
	3350 4275 3350 4350
Connection ~ 3350 4350
Wire Wire Line
	2700 4275 2700 4350
Connection ~ 2700 4350
Wire Wire Line
	2800 4275 3250 4275
Wire Wire Line
	3250 4275 3250 3750
Wire Wire Line
	3250 3750 3800 3750
Connection ~ 3800 3875
$Comp
L GND #PWR2
U 1 1 5B5456F2
P 3800 4400
F 0 "#PWR2" H 3800 4150 50  0001 C CNN
F 1 "GND" H 3800 4250 50  0000 C CNN
F 2 "" H 3800 4400 50  0001 C CNN
F 3 "" H 3800 4400 50  0001 C CNN
	1    3800 4400
	1    0    0    -1  
$EndComp
Connection ~ 3800 4350
$Comp
L +5V #PWR3
U 1 1 5B545788
P 3800 4800
F 0 "#PWR3" H 3800 4650 50  0001 C CNN
F 1 "+5V" H 3800 4940 50  0000 C CNN
F 2 "" H 3800 4800 50  0001 C CNN
F 3 "" H 3800 4800 50  0001 C CNN
	1    3800 4800
	1    0    0    -1  
$EndComp
Connection ~ 3800 3750
$Comp
L LM2596 U2
U 1 1 5B545ACE
P 2700 5025
F 0 "U2" H 2950 4825 60  0000 C CNN
F 1 "LM2596S-50" H 2600 5225 60  0000 C CNN
F 2 "TO_SOT_Packages_SMD:TO-263-5_TabPin3" H 2700 5025 60  0001 C CNN
F 3 "" H 2700 5025 60  0000 C CNN
	1    2700 5025
	1    0    0    -1  
$EndComp
$Comp
L D_Schottky D4
U 1 1 5B545AD4
P 3350 5225
F 0 "D4" H 3225 5275 50  0000 C CNN
F 1 "SS54" H 3450 5325 50  0000 C CNN
F 2 "Diodes_SMD:D_SMC_Handsoldering" H 3350 5225 50  0001 C CNN
F 3 "" H 3350 5225 50  0001 C CNN
	1    3350 5225
	0    1    1    0   
$EndComp
$Comp
L L L2
U 1 1 5B545ADA
P 3575 4975
F 0 "L2" V 3525 4975 50  0000 C CNN
F 1 "47uH" V 3650 4975 50  0000 C CNN
F 2 "Choke_SMD:Choke_SMD_12x12mm_h8mm" H 3575 4975 50  0001 C CNN
F 3 "" H 3575 4975 50  0001 C CNN
	1    3575 4975
	0    -1   -1   0   
$EndComp
$Comp
L CP C6
U 1 1 5B545AE0
P 3800 5225
F 0 "C6" H 3825 5325 50  0000 L CNN
F 1 "220uF/10V" H 3825 5125 50  0000 L CNN
F 2 "Capacitors_SMD:CP_Elec_6.3x7.7" H 3838 5075 50  0001 C CNN
F 3 "" H 3800 5225 50  0001 C CNN
	1    3800 5225
	1    0    0    -1  
$EndComp
Wire Wire Line
	3200 4975 3425 4975
Wire Wire Line
	3350 5075 3350 4975
Connection ~ 3350 4975
Wire Wire Line
	3800 4975 3725 4975
Wire Wire Line
	3800 4800 3800 5075
Wire Wire Line
	2600 5375 2600 5450
Wire Wire Line
	2600 5450 3800 5450
Wire Wire Line
	3800 5375 3800 5500
Wire Wire Line
	3350 5375 3350 5450
Connection ~ 3350 5450
Wire Wire Line
	2700 5375 2700 5450
Connection ~ 2700 5450
Wire Wire Line
	2800 5375 3250 5375
Wire Wire Line
	3250 5375 3250 4850
Wire Wire Line
	3250 4850 3800 4850
Connection ~ 3800 4975
$Comp
L GND #PWR4
U 1 1 5B545AF6
P 3800 5500
F 0 "#PWR4" H 3800 5250 50  0001 C CNN
F 1 "GND" H 3800 5350 50  0000 C CNN
F 2 "" H 3800 5500 50  0001 C CNN
F 3 "" H 3800 5500 50  0001 C CNN
	1    3800 5500
	1    0    0    -1  
$EndComp
Connection ~ 3800 5450
Connection ~ 3800 4850
$Comp
L +3.3V #PWR1
U 1 1 5B545CDE
P 3800 3700
F 0 "#PWR1" H 3800 3550 50  0001 C CNN
F 1 "+3.3V" H 3800 3840 50  0000 C CNN
F 2 "" H 3800 3700 50  0001 C CNN
F 3 "" H 3800 3700 50  0001 C CNN
	1    3800 3700
	1    0    0    -1  
$EndComp
Wire Wire Line
	1075 1700 1075 4975
Wire Wire Line
	1075 4975 2200 4975
Connection ~ 1975 1700
Wire Wire Line
	2200 3875 1075 3875
Connection ~ 1075 3875
$Comp
L CONN_01X06 J3
U 1 1 5B5477E7
P 8775 1725
F 0 "J3" H 8775 2075 50  0000 C CNN
F 1 "DC_OUT" V 8875 1725 50  0000 C CNN
F 2 "suf_connector_ncw:CONN_NCW396-06S" H 8775 1725 50  0001 C CNN
F 3 "" H 8775 1725 50  0001 C CNN
	1    8775 1725
	1    0    0    -1  
$EndComp
$Comp
L GND #PWR25
U 1 1 5B54788A
P 8175 2075
F 0 "#PWR25" H 8175 1825 50  0001 C CNN
F 1 "GND" H 8175 1925 50  0000 C CNN
F 2 "" H 8175 2075 50  0001 C CNN
F 3 "" H 8175 2075 50  0001 C CNN
	1    8175 2075
	1    0    0    -1  
$EndComp
$Comp
L -15V #PWR32
U 1 1 5B547AFC
P 8375 2075
F 0 "#PWR32" H 8375 2175 50  0001 C CNN
F 1 "-15V" H 8375 2225 50  0000 C CNN
F 2 "" H 8375 2075 50  0001 C CNN
F 3 "" H 8375 2075 50  0001 C CNN
	1    8375 2075
	-1   0    0    1   
$EndComp
$Comp
L +3.3V #PWR19
U 1 1 5B547B4F
P 7925 1375
F 0 "#PWR19" H 7925 1225 50  0001 C CNN
F 1 "+3.3V" H 7925 1515 50  0000 C CNN
F 2 "" H 7925 1375 50  0001 C CNN
F 3 "" H 7925 1375 50  0001 C CNN
	1    7925 1375
	1    0    0    -1  
$EndComp
$Comp
L +5V #PWR23
U 1 1 5B547BA2
P 8150 1375
F 0 "#PWR23" H 8150 1225 50  0001 C CNN
F 1 "+5V" H 8150 1515 50  0000 C CNN
F 2 "" H 8150 1375 50  0001 C CNN
F 3 "" H 8150 1375 50  0001 C CNN
	1    8150 1375
	1    0    0    -1  
$EndComp
$Comp
L +15V #PWR31
U 1 1 5B547BF5
P 8375 1375
F 0 "#PWR31" H 8375 1225 50  0001 C CNN
F 1 "+15V" H 8375 1515 50  0000 C CNN
F 2 "" H 8375 1375 50  0001 C CNN
F 3 "" H 8375 1375 50  0001 C CNN
	1    8375 1375
	1    0    0    -1  
$EndComp
Wire Wire Line
	8375 1375 8375 1475
Wire Wire Line
	8375 1475 8575 1475
Wire Wire Line
	8150 1375 8150 1575
Wire Wire Line
	8150 1575 8575 1575
Wire Wire Line
	7925 1375 7925 1675
Wire Wire Line
	7925 1675 8575 1675
Wire Wire Line
	8575 1875 8175 1875
Wire Wire Line
	8175 1875 8175 2075
Wire Wire Line
	8575 1975 8375 1975
Wire Wire Line
	8375 1975 8375 2075
$Comp
L CONN_01X06 J4
U 1 1 5B5481FA
P 8775 3050
F 0 "J4" H 8775 3400 50  0000 C CNN
F 1 "DC_OUT" V 8875 3050 50  0000 C CNN
F 2 "suf_connector_ncw:CONN_NCW396-06S" H 8775 3050 50  0001 C CNN
F 3 "" H 8775 3050 50  0001 C CNN
	1    8775 3050
	1    0    0    -1  
$EndComp
$Comp
L GND #PWR26
U 1 1 5B548200
P 8175 3400
F 0 "#PWR26" H 8175 3150 50  0001 C CNN
F 1 "GND" H 8175 3250 50  0000 C CNN
F 2 "" H 8175 3400 50  0001 C CNN
F 3 "" H 8175 3400 50  0001 C CNN
	1    8175 3400
	1    0    0    -1  
$EndComp
$Comp
L -15V #PWR34
U 1 1 5B548206
P 8375 3400
F 0 "#PWR34" H 8375 3500 50  0001 C CNN
F 1 "-15V" H 8375 3550 50  0000 C CNN
F 2 "" H 8375 3400 50  0001 C CNN
F 3 "" H 8375 3400 50  0001 C CNN
	1    8375 3400
	-1   0    0    1   
$EndComp
$Comp
L +3.3V #PWR20
U 1 1 5B54820C
P 7925 2700
F 0 "#PWR20" H 7925 2550 50  0001 C CNN
F 1 "+3.3V" H 7925 2840 50  0000 C CNN
F 2 "" H 7925 2700 50  0001 C CNN
F 3 "" H 7925 2700 50  0001 C CNN
	1    7925 2700
	1    0    0    -1  
$EndComp
$Comp
L +5V #PWR24
U 1 1 5B548212
P 8150 2700
F 0 "#PWR24" H 8150 2550 50  0001 C CNN
F 1 "+5V" H 8150 2840 50  0000 C CNN
F 2 "" H 8150 2700 50  0001 C CNN
F 3 "" H 8150 2700 50  0001 C CNN
	1    8150 2700
	1    0    0    -1  
$EndComp
$Comp
L +15V #PWR33
U 1 1 5B548218
P 8375 2700
F 0 "#PWR33" H 8375 2550 50  0001 C CNN
F 1 "+15V" H 8375 2840 50  0000 C CNN
F 2 "" H 8375 2700 50  0001 C CNN
F 3 "" H 8375 2700 50  0001 C CNN
	1    8375 2700
	1    0    0    -1  
$EndComp
Wire Wire Line
	8375 2700 8375 2800
Wire Wire Line
	8375 2800 8575 2800
Wire Wire Line
	8150 2700 8150 2900
Wire Wire Line
	8150 2900 8575 2900
Wire Wire Line
	7925 2700 7925 3000
Wire Wire Line
	7925 3000 8575 3000
Wire Wire Line
	8575 3200 8175 3200
Wire Wire Line
	8175 3200 8175 3400
Wire Wire Line
	8575 3300 8375 3300
Wire Wire Line
	8375 3300 8375 3400
$Comp
L CONN_01X06 J5
U 1 1 5B5482A8
P 8800 4375
F 0 "J5" H 8800 4725 50  0000 C CNN
F 1 "DC_OUT" V 8900 4375 50  0000 C CNN
F 2 "suf_connector_ncw:CONN_NCW396-06S" H 8800 4375 50  0001 C CNN
F 3 "" H 8800 4375 50  0001 C CNN
	1    8800 4375
	1    0    0    -1  
$EndComp
$Comp
L GND #PWR28
U 1 1 5B5482AE
P 8200 4725
F 0 "#PWR28" H 8200 4475 50  0001 C CNN
F 1 "GND" H 8200 4575 50  0000 C CNN
F 2 "" H 8200 4725 50  0001 C CNN
F 3 "" H 8200 4725 50  0001 C CNN
	1    8200 4725
	1    0    0    -1  
$EndComp
$Comp
L -15V #PWR36
U 1 1 5B5482B4
P 8400 4725
F 0 "#PWR36" H 8400 4825 50  0001 C CNN
F 1 "-15V" H 8400 4875 50  0000 C CNN
F 2 "" H 8400 4725 50  0001 C CNN
F 3 "" H 8400 4725 50  0001 C CNN
	1    8400 4725
	-1   0    0    1   
$EndComp
$Comp
L +3.3V #PWR21
U 1 1 5B5482BA
P 7950 4025
F 0 "#PWR21" H 7950 3875 50  0001 C CNN
F 1 "+3.3V" H 7950 4165 50  0000 C CNN
F 2 "" H 7950 4025 50  0001 C CNN
F 3 "" H 7950 4025 50  0001 C CNN
	1    7950 4025
	1    0    0    -1  
$EndComp
$Comp
L +5V #PWR27
U 1 1 5B5482C0
P 8175 4025
F 0 "#PWR27" H 8175 3875 50  0001 C CNN
F 1 "+5V" H 8175 4165 50  0000 C CNN
F 2 "" H 8175 4025 50  0001 C CNN
F 3 "" H 8175 4025 50  0001 C CNN
	1    8175 4025
	1    0    0    -1  
$EndComp
$Comp
L +15V #PWR35
U 1 1 5B5482C6
P 8400 4025
F 0 "#PWR35" H 8400 3875 50  0001 C CNN
F 1 "+15V" H 8400 4165 50  0000 C CNN
F 2 "" H 8400 4025 50  0001 C CNN
F 3 "" H 8400 4025 50  0001 C CNN
	1    8400 4025
	1    0    0    -1  
$EndComp
Wire Wire Line
	8400 4025 8400 4125
Wire Wire Line
	8400 4125 8600 4125
Wire Wire Line
	8175 4025 8175 4225
Wire Wire Line
	8175 4225 8600 4225
Wire Wire Line
	7950 4025 7950 4325
Wire Wire Line
	7950 4325 8600 4325
Wire Wire Line
	8600 4525 8200 4525
Wire Wire Line
	8200 4525 8200 4725
Wire Wire Line
	8600 4625 8400 4625
Wire Wire Line
	8400 4625 8400 4725
$Comp
L CONN_01X06 J6
U 1 1 5B5483EE
P 8825 5750
F 0 "J6" H 8825 6100 50  0000 C CNN
F 1 "DC_OUT" V 8925 5750 50  0000 C CNN
F 2 "suf_connector_ncw:CONN_NCW396-06S" H 8825 5750 50  0001 C CNN
F 3 "" H 8825 5750 50  0001 C CNN
	1    8825 5750
	1    0    0    -1  
$EndComp
$Comp
L GND #PWR30
U 1 1 5B5483F4
P 8225 6100
F 0 "#PWR30" H 8225 5850 50  0001 C CNN
F 1 "GND" H 8225 5950 50  0000 C CNN
F 2 "" H 8225 6100 50  0001 C CNN
F 3 "" H 8225 6100 50  0001 C CNN
	1    8225 6100
	1    0    0    -1  
$EndComp
$Comp
L -15V #PWR38
U 1 1 5B5483FA
P 8425 6100
F 0 "#PWR38" H 8425 6200 50  0001 C CNN
F 1 "-15V" H 8425 6250 50  0000 C CNN
F 2 "" H 8425 6100 50  0001 C CNN
F 3 "" H 8425 6100 50  0001 C CNN
	1    8425 6100
	-1   0    0    1   
$EndComp
$Comp
L +3.3V #PWR22
U 1 1 5B548400
P 7975 5400
F 0 "#PWR22" H 7975 5250 50  0001 C CNN
F 1 "+3.3V" H 7975 5540 50  0000 C CNN
F 2 "" H 7975 5400 50  0001 C CNN
F 3 "" H 7975 5400 50  0001 C CNN
	1    7975 5400
	1    0    0    -1  
$EndComp
$Comp
L +5V #PWR29
U 1 1 5B548406
P 8200 5400
F 0 "#PWR29" H 8200 5250 50  0001 C CNN
F 1 "+5V" H 8200 5540 50  0000 C CNN
F 2 "" H 8200 5400 50  0001 C CNN
F 3 "" H 8200 5400 50  0001 C CNN
	1    8200 5400
	1    0    0    -1  
$EndComp
$Comp
L +15V #PWR37
U 1 1 5B54840C
P 8425 5400
F 0 "#PWR37" H 8425 5250 50  0001 C CNN
F 1 "+15V" H 8425 5540 50  0000 C CNN
F 2 "" H 8425 5400 50  0001 C CNN
F 3 "" H 8425 5400 50  0001 C CNN
	1    8425 5400
	1    0    0    -1  
$EndComp
Wire Wire Line
	8425 5400 8425 5500
Wire Wire Line
	8425 5500 8625 5500
Wire Wire Line
	8200 5400 8200 5600
Wire Wire Line
	8200 5600 8625 5600
Wire Wire Line
	7975 5400 7975 5700
Wire Wire Line
	7975 5700 8625 5700
Wire Wire Line
	8625 5900 8225 5900
Wire Wire Line
	8225 5900 8225 6100
Wire Wire Line
	8625 6000 8425 6000
Wire Wire Line
	8425 6000 8425 6100
$Comp
L CONN_01X05 J7
U 1 1 5B54841C
P 10225 3025
F 0 "J7" H 10225 3325 50  0000 C CNN
F 1 "DC_OUT" V 10325 3025 50  0000 C CNN
F 2 "suf_connector_ncw:CONN_NCW396-05S" H 10225 3025 50  0001 C CNN
F 3 "" H 10225 3025 50  0001 C CNN
	1    10225 3025
	1    0    0    -1  
$EndComp
$Comp
L GND #PWR44
U 1 1 5B548422
P 9625 3325
F 0 "#PWR44" H 9625 3075 50  0001 C CNN
F 1 "GND" H 9625 3175 50  0000 C CNN
F 2 "" H 9625 3325 50  0001 C CNN
F 3 "" H 9625 3325 50  0001 C CNN
	1    9625 3325
	1    0    0    -1  
$EndComp
$Comp
L -15V #PWR47
U 1 1 5B548428
P 9825 3325
F 0 "#PWR47" H 9825 3425 50  0001 C CNN
F 1 "-15V" H 9825 3475 50  0000 C CNN
F 2 "" H 9825 3325 50  0001 C CNN
F 3 "" H 9825 3325 50  0001 C CNN
	1    9825 3325
	-1   0    0    1   
$EndComp
$Comp
L +3.3V #PWR39
U 1 1 5B54842E
P 9375 2725
F 0 "#PWR39" H 9375 2575 50  0001 C CNN
F 1 "+3.3V" H 9375 2865 50  0000 C CNN
F 2 "" H 9375 2725 50  0001 C CNN
F 3 "" H 9375 2725 50  0001 C CNN
	1    9375 2725
	1    0    0    -1  
$EndComp
$Comp
L +5V #PWR42
U 1 1 5B548434
P 9600 2725
F 0 "#PWR42" H 9600 2575 50  0001 C CNN
F 1 "+5V" H 9600 2865 50  0000 C CNN
F 2 "" H 9600 2725 50  0001 C CNN
F 3 "" H 9600 2725 50  0001 C CNN
	1    9600 2725
	1    0    0    -1  
$EndComp
$Comp
L +15V #PWR46
U 1 1 5B54843A
P 9825 2725
F 0 "#PWR46" H 9825 2575 50  0001 C CNN
F 1 "+15V" H 9825 2865 50  0000 C CNN
F 2 "" H 9825 2725 50  0001 C CNN
F 3 "" H 9825 2725 50  0001 C CNN
	1    9825 2725
	1    0    0    -1  
$EndComp
Wire Wire Line
	9825 2725 9825 2825
Wire Wire Line
	9825 2825 10025 2825
Wire Wire Line
	9600 2725 9600 2925
Wire Wire Line
	9600 2925 10025 2925
Wire Wire Line
	9375 2725 9375 3025
Wire Wire Line
	9375 3025 10025 3025
Wire Wire Line
	10025 3125 9625 3125
Wire Wire Line
	9625 3125 9625 3325
Wire Wire Line
	10025 3225 9825 3225
Wire Wire Line
	9825 3225 9825 3325
$Comp
L CONN_01X05 J8
U 1 1 5B54844A
P 10225 4050
F 0 "J8" H 10225 4350 50  0000 C CNN
F 1 "DC_OUT" V 10325 4050 50  0000 C CNN
F 2 "suf_connector_ncw:CONN_NCW396-05S" H 10225 4050 50  0001 C CNN
F 3 "" H 10225 4050 50  0001 C CNN
	1    10225 4050
	1    0    0    -1  
$EndComp
$Comp
L GND #PWR45
U 1 1 5B548450
P 9625 4350
F 0 "#PWR45" H 9625 4100 50  0001 C CNN
F 1 "GND" H 9625 4200 50  0000 C CNN
F 2 "" H 9625 4350 50  0001 C CNN
F 3 "" H 9625 4350 50  0001 C CNN
	1    9625 4350
	1    0    0    -1  
$EndComp
$Comp
L +3.3V #PWR40
U 1 1 5B54845C
P 9375 3750
F 0 "#PWR40" H 9375 3600 50  0001 C CNN
F 1 "+3.3V" H 9375 3890 50  0000 C CNN
F 2 "" H 9375 3750 50  0001 C CNN
F 3 "" H 9375 3750 50  0001 C CNN
	1    9375 3750
	1    0    0    -1  
$EndComp
$Comp
L +5V #PWR43
U 1 1 5B548462
P 9600 3750
F 0 "#PWR43" H 9600 3600 50  0001 C CNN
F 1 "+5V" H 9600 3890 50  0000 C CNN
F 2 "" H 9600 3750 50  0001 C CNN
F 3 "" H 9600 3750 50  0001 C CNN
	1    9600 3750
	1    0    0    -1  
$EndComp
$Comp
L +15V #PWR48
U 1 1 5B548468
P 9825 3750
F 0 "#PWR48" H 9825 3600 50  0001 C CNN
F 1 "+15V" H 9825 3890 50  0000 C CNN
F 2 "" H 9825 3750 50  0001 C CNN
F 3 "" H 9825 3750 50  0001 C CNN
	1    9825 3750
	1    0    0    -1  
$EndComp
Wire Wire Line
	9825 3750 9825 3850
Wire Wire Line
	9825 3850 10025 3850
Wire Wire Line
	9600 3750 9600 3950
Wire Wire Line
	9600 3950 10025 3950
Wire Wire Line
	9375 3750 9375 4050
Wire Wire Line
	9375 4050 10025 4050
Wire Wire Line
	10025 4150 9625 4150
Wire Wire Line
	9625 4150 9625 4350
Wire Wire Line
	10025 4250 9825 4250
Wire Wire Line
	9825 4250 9825 4350
$Comp
L -15V #PWR49
U 1 1 5B548456
P 9825 4350
F 0 "#PWR49" H 9825 4450 50  0001 C CNN
F 1 "-15V" H 9825 4500 50  0000 C CNN
F 2 "" H 9825 4350 50  0001 C CNN
F 3 "" H 9825 4350 50  0001 C CNN
	1    9825 4350
	-1   0    0    1   
$EndComp
$Comp
L CONN_01X02 J2
U 1 1 5B548500
P 10250 5675
F 0 "J2" H 10250 5825 50  0000 C CNN
F 1 "PWR_LED" V 10350 5675 50  0000 C CNN
F 2 "suf_connector_ncw:CONN_NCW254-02S" H 10250 5675 50  0001 C CNN
F 3 "" H 10250 5675 50  0001 C CNN
	1    10250 5675
	1    0    0    -1  
$EndComp
$Comp
L R R5
U 1 1 5B5485EF
P 9800 5625
F 0 "R5" V 9880 5625 50  0000 C CNN
F 1 "220" V 9800 5625 50  0000 C CNN
F 2 "Resistors_SMD:R_0603_HandSoldering" V 9730 5625 50  0001 C CNN
F 3 "" H 9800 5625 50  0001 C CNN
	1    9800 5625
	0    1    1    0   
$EndComp
$Comp
L +5V #PWR41
U 1 1 5B548723
P 9575 5525
F 0 "#PWR41" H 9575 5375 50  0001 C CNN
F 1 "+5V" H 9575 5665 50  0000 C CNN
F 2 "" H 9575 5525 50  0001 C CNN
F 3 "" H 9575 5525 50  0001 C CNN
	1    9575 5525
	1    0    0    -1  
$EndComp
$Comp
L GND #PWR50
U 1 1 5B54878B
P 9975 5825
F 0 "#PWR50" H 9975 5575 50  0001 C CNN
F 1 "GND" H 9975 5675 50  0000 C CNN
F 2 "" H 9975 5825 50  0001 C CNN
F 3 "" H 9975 5825 50  0001 C CNN
	1    9975 5825
	1    0    0    -1  
$EndComp
Wire Wire Line
	9575 5525 9575 5625
Wire Wire Line
	9575 5625 9650 5625
Wire Wire Line
	9950 5625 10050 5625
Wire Wire Line
	10050 5725 9975 5725
Wire Wire Line
	9975 5725 9975 5825
$Comp
L LM324 U5
U 1 1 5B67343F
P 7375 1775
F 0 "U5" H 7375 1975 50  0000 L CNN
F 1 "OPA4197" H 7375 1575 50  0000 L CNN
F 2 "Housings_SOIC:SOIC-14_3.9x8.7mm_Pitch1.27mm" H 7325 1875 50  0001 C CNN
F 3 "" H 7425 1975 50  0001 C CNN
	1    7375 1775
	1    0    0    -1  
$EndComp
Wire Wire Line
	7675 1775 8575 1775
Wire Wire Line
	7800 1775 7800 2100
Wire Wire Line
	7800 2100 7075 2100
Wire Wire Line
	7075 2100 7075 1875
Connection ~ 7800 1775
$Comp
L GND #PWR12
U 1 1 5B673935
P 7275 2175
F 0 "#PWR12" H 7275 1925 50  0001 C CNN
F 1 "GND" H 7275 2025 50  0000 C CNN
F 2 "" H 7275 2175 50  0001 C CNN
F 3 "" H 7275 2175 50  0001 C CNN
	1    7275 2175
	1    0    0    -1  
$EndComp
$Comp
L +5V #PWR11
U 1 1 5B6739A0
P 7275 1375
F 0 "#PWR11" H 7275 1225 50  0001 C CNN
F 1 "+5V" H 7275 1515 50  0000 C CNN
F 2 "" H 7275 1375 50  0001 C CNN
F 3 "" H 7275 1375 50  0001 C CNN
	1    7275 1375
	1    0    0    -1  
$EndComp
Wire Wire Line
	7275 1375 7275 1475
Wire Wire Line
	7275 2075 7275 2175
Text GLabel 6925 1675 0    40   Input ~ 0
SPLITRAIL
Wire Wire Line
	6925 1675 7075 1675
$Comp
L LM324 U5
U 2 1 5B674917
P 7375 3100
F 0 "U5" H 7375 3300 50  0000 L CNN
F 1 "OPA4197" H 7375 2900 50  0000 L CNN
F 2 "Housings_SOIC:SOIC-14_3.9x8.7mm_Pitch1.27mm" H 7325 3200 50  0001 C CNN
F 3 "" H 7425 3300 50  0001 C CNN
	2    7375 3100
	1    0    0    -1  
$EndComp
Wire Wire Line
	7675 3100 8575 3100
Wire Wire Line
	7800 3100 7800 3425
Wire Wire Line
	7800 3425 7075 3425
Wire Wire Line
	7075 3425 7075 3200
Connection ~ 7800 3100
$Comp
L GND #PWR14
U 1 1 5B674922
P 7275 3500
F 0 "#PWR14" H 7275 3250 50  0001 C CNN
F 1 "GND" H 7275 3350 50  0000 C CNN
F 2 "" H 7275 3500 50  0001 C CNN
F 3 "" H 7275 3500 50  0001 C CNN
	1    7275 3500
	1    0    0    -1  
$EndComp
$Comp
L +5V #PWR13
U 1 1 5B674928
P 7275 2700
F 0 "#PWR13" H 7275 2550 50  0001 C CNN
F 1 "+5V" H 7275 2840 50  0000 C CNN
F 2 "" H 7275 2700 50  0001 C CNN
F 3 "" H 7275 2700 50  0001 C CNN
	1    7275 2700
	1    0    0    -1  
$EndComp
Wire Wire Line
	7275 2700 7275 2800
Wire Wire Line
	7275 3400 7275 3500
Text GLabel 6925 3000 0    40   Input ~ 0
SPLITRAIL
Wire Wire Line
	6925 3000 7075 3000
$Comp
L LM324 U5
U 3 1 5B6749F5
P 7400 4425
F 0 "U5" H 7400 4625 50  0000 L CNN
F 1 "OPA4197" H 7400 4225 50  0000 L CNN
F 2 "Housings_SOIC:SOIC-14_3.9x8.7mm_Pitch1.27mm" H 7350 4525 50  0001 C CNN
F 3 "" H 7450 4625 50  0001 C CNN
	3    7400 4425
	1    0    0    -1  
$EndComp
Wire Wire Line
	7700 4425 8600 4425
Wire Wire Line
	7825 4425 7825 4750
Wire Wire Line
	7825 4750 7100 4750
Wire Wire Line
	7100 4750 7100 4525
Connection ~ 7825 4425
$Comp
L GND #PWR16
U 1 1 5B674A00
P 7300 4825
F 0 "#PWR16" H 7300 4575 50  0001 C CNN
F 1 "GND" H 7300 4675 50  0000 C CNN
F 2 "" H 7300 4825 50  0001 C CNN
F 3 "" H 7300 4825 50  0001 C CNN
	1    7300 4825
	1    0    0    -1  
$EndComp
$Comp
L +5V #PWR15
U 1 1 5B674A06
P 7300 4025
F 0 "#PWR15" H 7300 3875 50  0001 C CNN
F 1 "+5V" H 7300 4165 50  0000 C CNN
F 2 "" H 7300 4025 50  0001 C CNN
F 3 "" H 7300 4025 50  0001 C CNN
	1    7300 4025
	1    0    0    -1  
$EndComp
Wire Wire Line
	7300 4025 7300 4125
Wire Wire Line
	7300 4725 7300 4825
Text GLabel 6950 4325 0    40   Input ~ 0
SPLITRAIL
Wire Wire Line
	6950 4325 7100 4325
$Comp
L LM324 U5
U 4 1 5B6752A7
P 7425 5800
F 0 "U5" H 7425 6000 50  0000 L CNN
F 1 "OPA4197" H 7425 5600 50  0000 L CNN
F 2 "Housings_SOIC:SOIC-14_3.9x8.7mm_Pitch1.27mm" H 7375 5900 50  0001 C CNN
F 3 "" H 7475 6000 50  0001 C CNN
	4    7425 5800
	1    0    0    -1  
$EndComp
Wire Wire Line
	7725 5800 8625 5800
Wire Wire Line
	7850 5800 7850 6125
Wire Wire Line
	7850 6125 7125 6125
Wire Wire Line
	7125 6125 7125 5900
Connection ~ 7850 5800
$Comp
L GND #PWR18
U 1 1 5B6752B2
P 7325 6200
F 0 "#PWR18" H 7325 5950 50  0001 C CNN
F 1 "GND" H 7325 6050 50  0000 C CNN
F 2 "" H 7325 6200 50  0001 C CNN
F 3 "" H 7325 6200 50  0001 C CNN
	1    7325 6200
	1    0    0    -1  
$EndComp
$Comp
L +5V #PWR17
U 1 1 5B6752B8
P 7325 5400
F 0 "#PWR17" H 7325 5250 50  0001 C CNN
F 1 "+5V" H 7325 5540 50  0000 C CNN
F 2 "" H 7325 5400 50  0001 C CNN
F 3 "" H 7325 5400 50  0001 C CNN
	1    7325 5400
	1    0    0    -1  
$EndComp
Wire Wire Line
	7325 5400 7325 5500
Wire Wire Line
	7325 6100 7325 6200
Text GLabel 6975 5700 0    40   Input ~ 0
SPLITRAIL
Wire Wire Line
	6975 5700 7125 5700
$Comp
L R R6
U 1 1 5B676438
P 5125 2875
F 0 "R6" V 5205 2875 50  0000 C CNN
F 1 "10K/0.1%" V 5000 2875 50  0000 C CNN
F 2 "Resistors_SMD:R_0603_HandSoldering" V 5055 2875 50  0001 C CNN
F 3 "" H 5125 2875 50  0001 C CNN
	1    5125 2875
	1    0    0    -1  
$EndComp
$Comp
L R R7
U 1 1 5B6766B4
P 5125 3375
F 0 "R7" V 5205 3375 50  0000 C CNN
F 1 "10K/0.1%" V 5000 3425 50  0000 C CNN
F 2 "Resistors_SMD:R_0603_HandSoldering" V 5055 3375 50  0001 C CNN
F 3 "" H 5125 3375 50  0001 C CNN
	1    5125 3375
	1    0    0    -1  
$EndComp
$Comp
L GND #PWR9
U 1 1 5B676778
P 5125 3600
F 0 "#PWR9" H 5125 3350 50  0001 C CNN
F 1 "GND" H 5125 3450 50  0000 C CNN
F 2 "" H 5125 3600 50  0001 C CNN
F 3 "" H 5125 3600 50  0001 C CNN
	1    5125 3600
	1    0    0    -1  
$EndComp
$Comp
L +5V #PWR8
U 1 1 5B6767F2
P 4700 2425
F 0 "#PWR8" H 4700 2275 50  0001 C CNN
F 1 "+5V" H 4700 2565 50  0000 C CNN
F 2 "" H 4700 2425 50  0001 C CNN
F 3 "" H 4700 2425 50  0001 C CNN
	1    4700 2425
	1    0    0    -1  
$EndComp
$Comp
L +3.3V #PWR10
U 1 1 5B67686C
P 5200 2425
F 0 "#PWR10" H 5200 2275 50  0001 C CNN
F 1 "+3.3V" H 5200 2565 50  0000 C CNN
F 2 "" H 5200 2425 50  0001 C CNN
F 3 "" H 5200 2425 50  0001 C CNN
	1    5200 2425
	1    0    0    -1  
$EndComp
$Comp
L C C9
U 1 1 5B67817A
P 4775 2875
F 0 "C9" H 4800 2975 50  0000 L CNN
F 1 "100nF" H 4525 2775 50  0000 L CNN
F 2 "Capacitors_SMD:C_0603_HandSoldering" H 4813 2725 50  0001 C CNN
F 3 "" H 4775 2875 50  0001 C CNN
	1    4775 2875
	1    0    0    -1  
$EndComp
$Comp
L C C10
U 1 1 5B678215
P 4775 3375
F 0 "C10" H 4800 3475 50  0000 L CNN
F 1 "100nF" H 4525 3275 50  0000 L CNN
F 2 "Capacitors_SMD:C_0603_HandSoldering" H 4813 3225 50  0001 C CNN
F 3 "" H 4775 3375 50  0001 C CNN
	1    4775 3375
	1    0    0    -1  
$EndComp
Text GLabel 5350 3100 2    40   Input ~ 0
SPLITRAIL
Wire Wire Line
	4775 2675 4775 2725
Wire Wire Line
	4775 2675 5125 2675
Wire Wire Line
	5125 2675 5125 2725
Wire Wire Line
	4775 3025 4775 3225
Wire Wire Line
	5125 3025 5125 3225
Wire Wire Line
	4775 3525 5125 3525
Wire Wire Line
	5125 3525 5125 3600
Wire Wire Line
	4775 3100 5350 3100
Connection ~ 5125 3100
Connection ~ 4775 3100
Wire Wire Line
	4700 2425 4700 2575
Wire Wire Line
	5200 2425 5200 2575
$Comp
L Jumper_NC_Dual JP1
U 1 1 5B6CEE0A
P 4950 2575
F 0 "JP1" H 5175 2525 50  0000 L CNN
F 1 "+5V/+3.3V" H 4950 2675 50  0000 C BNN
F 2 "Pin_Headers:Pin_Header_Straight_1x03_Pitch2.54mm" H 4950 2575 50  0001 C CNN
F 3 "" H 4950 2575 50  0001 C CNN
	1    4950 2575
	1    0    0    -1  
$EndComp
Connection ~ 4950 2675
$EndSCHEMATC
